@startuml "rx868"

' =======================================
' Thingsat :: Mission Scenario
' (c) CSUG, UGA, 2020-2023
' =======================================

' For Docker generation. Else !include common.plantuml
!include /var/docs/common.plantuml

' =======================================
' Variables
' =======================================

' TODO

' =======================================
' Scenario
' =======================================

%invoke_procedure("$introduction", "RX 868")

== Uplink ==

OBC<-GroundSegment : Send file (filename="0001.EXP")
note left: .EXP file size is less than 2 Kbytes.

OBC<-GroundSegment : Send mission plan for Payload

%invoke_procedure("$begin", "EXP 0001")

%invoke_procedure("$readfile", "0001.EXP")

note over Payload: A experiment is a sequence of 1 to 32 scenarios

' ---------------------------------------

%invoke_procedure("$beginning_scenario", "RX 868")

LoRa->Payload : LoRa frame\nDuration : 0.05 to 2 seconds

... several seconds ...

LoRa->Payload : LoRa frame\nDuration : 0.05 to 2 seconds

... several seconds ...

%invoke_procedure("$end_scenario", "RX 868", "000100.RES")

' ---------------------------------------

%invoke_procedure("$diagnosis", "0001.DIA")

%invoke_procedure("$shutdown")

== Downlink the queued files ==

OBC->GroundSegment : Send file with filename="000100.RES"
OBC->GroundSegment :  Send file with filename="0001.DIA"

@enduml