<?xml version="1.0" encoding="UTF-8" standalone="no"?>
<svg xmlns="http://www.w3.org/2000/svg" xmlns:xlink="http://www.w3.org/1999/xlink" contentScriptType="application/ecmascript" contentStyleType="text/css" height="4375px" preserveAspectRatio="none" style="width:1154px;height:4375px;background:#FFFFFF;" version="1.1" viewBox="0 0 1154 4375" width="1154px" zoomAndPan="magnify"><defs><filter height="300%" id="f1dsoq8oe767lv" width="300%" x="-1" y="-1"><feGaussianBlur result="blurOut" stdDeviation="2.0"/><feColorMatrix in="blurOut" result="blurOut2" type="matrix" values="0 0 0 0 0 0 0 0 0 0 0 0 0 0 0 0 0 0 .4 0"/><feOffset dx="4.0" dy="4.0" in="blurOut2" result="blurOut3"/><feBlend in="SourceGraphic" in2="blurOut3" mode="normal"/></filter></defs><g><text fill="#000000" font-family="sans-serif" font-size="18" lengthAdjust="spacing" textLength="366" x="390.5" y="43.3486">Thingsat Mission Scenario :: Store 2400</text><rect fill="#FFFFFF" filter="url(#f1dsoq8oe767lv)" height="159.9297" rx="5" ry="5" style="stroke:#000000;stroke-width:2.0;" width="600" x="224" y="462.4844"/><rect fill="#FFFFFF" filter="url(#f1dsoq8oe767lv)" height="223.0625" rx="5" ry="5" style="stroke:#000000;stroke-width:2.0;" width="507" x="327" y="636.4141"/><rect fill="#FFFFFF" filter="url(#f1dsoq8oe767lv)" height="75.3984" rx="5" ry="5" style="stroke:#000000;stroke-width:2.0;" width="487" x="337" y="718.8125"/><rect fill="#FFFFFF" filter="url(#f1dsoq8oe767lv)" height="159.9297" rx="5" ry="5" style="stroke:#000000;stroke-width:2.0;" width="600" x="224" y="1009.3516"/><rect fill="#FFFFFF" filter="url(#f1dsoq8oe767lv)" height="1729.4922" rx="5" ry="5" style="stroke:#000000;stroke-width:2.0;" width="834" x="10" y="1183.2813"/><rect fill="#FFFFFF" filter="url(#f1dsoq8oe767lv)" height="223.0625" rx="5" ry="5" style="stroke:#000000;stroke-width:2.0;" width="507" x="327" y="1701.625"/><rect fill="#FFFFFF" filter="url(#f1dsoq8oe767lv)" height="75.3984" rx="5" ry="5" style="stroke:#000000;stroke-width:2.0;" width="487" x="337" y="1784.0234"/><rect fill="#FFFFFF" filter="url(#f1dsoq8oe767lv)" height="223.0625" rx="5" ry="5" style="stroke:#000000;stroke-width:2.0;" width="507" x="327" y="2319.7734"/><rect fill="#FFFFFF" filter="url(#f1dsoq8oe767lv)" height="75.3984" rx="5" ry="5" style="stroke:#000000;stroke-width:2.0;" width="487" x="337" y="2402.1719"/><rect fill="#FFFFFF" filter="url(#f1dsoq8oe767lv)" height="223.0625" rx="5" ry="5" style="stroke:#000000;stroke-width:2.0;" width="507" x="327" y="2682.7109"/><rect fill="#FFFFFF" filter="url(#f1dsoq8oe767lv)" height="75.3984" rx="5" ry="5" style="stroke:#000000;stroke-width:2.0;" width="487" x="337" y="2765.1094"/><rect fill="#FFFFFF" filter="url(#f1dsoq8oe767lv)" height="159.9297" rx="5" ry="5" style="stroke:#000000;stroke-width:2.0;" width="600" x="224" y="2926.7734"/><rect fill="#FFFFFF" filter="url(#f1dsoq8oe767lv)" height="262.1953" rx="5" ry="5" style="stroke:#000000;stroke-width:2.0;" width="507" x="327" y="3100.7031"/><rect fill="#FFFFFF" filter="url(#f1dsoq8oe767lv)" height="75.3984" rx="5" ry="5" style="stroke:#000000;stroke-width:2.0;" width="487" x="337" y="3183.1016"/><rect fill="#FFFFFF" filter="url(#f1dsoq8oe767lv)" height="159.9297" rx="5" ry="5" style="stroke:#000000;stroke-width:2.0;" width="600" x="224" y="3463.1641"/><rect fill="#FFFFFF" filter="url(#f1dsoq8oe767lv)" height="262.1953" rx="5" ry="5" style="stroke:#000000;stroke-width:2.0;" width="507" x="327" y="3637.0938"/><rect fill="#FFFFFF" filter="url(#f1dsoq8oe767lv)" height="75.3984" rx="5" ry="5" style="stroke:#000000;stroke-width:2.0;" width="487" x="337" y="3719.4922"/><line style="stroke:#A80036;stroke-width:1.0;" x1="110" x2="110" y1="89.8906" y2="905.6094"/><line style="stroke:#A80036;stroke-width:1.0;stroke-dasharray:1.0,4.0;" x1="110" x2="110" y1="905.6094" y2="959.2188"/><line style="stroke:#A80036;stroke-width:1.0;" x1="110" x2="110" y1="959.2188" y2="1329.2109"/><line style="stroke:#A80036;stroke-width:1.0;stroke-dasharray:1.0,4.0;" x1="110" x2="110" y1="1329.2109" y2="1370.0156"/><line style="stroke:#A80036;stroke-width:1.0;" x1="110" x2="110" y1="1370.0156" y2="1414.2813"/><line style="stroke:#A80036;stroke-width:1.0;stroke-dasharray:1.0,4.0;" x1="110" x2="110" y1="1414.2813" y2="1455.0859"/><line style="stroke:#A80036;stroke-width:1.0;" x1="110" x2="110" y1="1455.0859" y2="1499.3516"/><line style="stroke:#A80036;stroke-width:1.0;stroke-dasharray:1.0,4.0;" x1="110" x2="110" y1="1499.3516" y2="1540.1563"/><line style="stroke:#A80036;stroke-width:1.0;" x1="110" x2="110" y1="1540.1563" y2="1584.4219"/><line style="stroke:#A80036;stroke-width:1.0;stroke-dasharray:1.0,4.0;" x1="110" x2="110" y1="1584.4219" y2="1625.2266"/><line style="stroke:#A80036;stroke-width:1.0;" x1="110" x2="110" y1="1625.2266" y2="1931.6875"/><line style="stroke:#A80036;stroke-width:1.0;stroke-dasharray:1.0,4.0;" x1="110" x2="110" y1="1931.6875" y2="1972.4922"/><line style="stroke:#A80036;stroke-width:1.0;" x1="110" x2="110" y1="1972.4922" y2="2016.7578"/><line style="stroke:#A80036;stroke-width:1.0;stroke-dasharray:1.0,4.0;" x1="110" x2="110" y1="2016.7578" y2="2057.5625"/><line style="stroke:#A80036;stroke-width:1.0;" x1="110" x2="110" y1="2057.5625" y2="2101.8281"/><line style="stroke:#A80036;stroke-width:1.0;stroke-dasharray:1.0,4.0;" x1="110" x2="110" y1="2101.8281" y2="2142.6328"/><line style="stroke:#A80036;stroke-width:1.0;" x1="110" x2="110" y1="2142.6328" y2="2186.8984"/><line style="stroke:#A80036;stroke-width:1.0;stroke-dasharray:1.0,4.0;" x1="110" x2="110" y1="2186.8984" y2="2227.7031"/><line style="stroke:#A80036;stroke-width:1.0;" x1="110" x2="110" y1="2227.7031" y2="2271.9688"/><line style="stroke:#A80036;stroke-width:1.0;stroke-dasharray:1.0,4.0;" x1="110" x2="110" y1="2271.9688" y2="2312.7734"/><line style="stroke:#A80036;stroke-width:1.0;" x1="110" x2="110" y1="2312.7734" y2="2549.8359"/><line style="stroke:#A80036;stroke-width:1.0;stroke-dasharray:1.0,4.0;" x1="110" x2="110" y1="2549.8359" y2="2590.6406"/><line style="stroke:#A80036;stroke-width:1.0;" x1="110" x2="110" y1="2590.6406" y2="2634.9063"/><line style="stroke:#A80036;stroke-width:1.0;stroke-dasharray:1.0,4.0;" x1="110" x2="110" y1="2634.9063" y2="2675.7109"/><line style="stroke:#A80036;stroke-width:1.0;" x1="110" x2="110" y1="2675.7109" y2="4319.0156"/><line style="stroke:#A80036;stroke-width:1.0;" x1="383" x2="383" y1="89.8906" y2="905.6094"/><line style="stroke:#A80036;stroke-width:1.0;stroke-dasharray:1.0,4.0;" x1="383" x2="383" y1="905.6094" y2="959.2188"/><line style="stroke:#A80036;stroke-width:1.0;" x1="383" x2="383" y1="959.2188" y2="1329.2109"/><line style="stroke:#A80036;stroke-width:1.0;stroke-dasharray:1.0,4.0;" x1="383" x2="383" y1="1329.2109" y2="1370.0156"/><line style="stroke:#A80036;stroke-width:1.0;" x1="383" x2="383" y1="1370.0156" y2="1414.2813"/><line style="stroke:#A80036;stroke-width:1.0;stroke-dasharray:1.0,4.0;" x1="383" x2="383" y1="1414.2813" y2="1455.0859"/><line style="stroke:#A80036;stroke-width:1.0;" x1="383" x2="383" y1="1455.0859" y2="1499.3516"/><line style="stroke:#A80036;stroke-width:1.0;stroke-dasharray:1.0,4.0;" x1="383" x2="383" y1="1499.3516" y2="1540.1563"/><line style="stroke:#A80036;stroke-width:1.0;" x1="383" x2="383" y1="1540.1563" y2="1584.4219"/><line style="stroke:#A80036;stroke-width:1.0;stroke-dasharray:1.0,4.0;" x1="383" x2="383" y1="1584.4219" y2="1625.2266"/><line style="stroke:#A80036;stroke-width:1.0;" x1="383" x2="383" y1="1625.2266" y2="1931.6875"/><line style="stroke:#A80036;stroke-width:1.0;stroke-dasharray:1.0,4.0;" x1="383" x2="383" y1="1931.6875" y2="1972.4922"/><line style="stroke:#A80036;stroke-width:1.0;" x1="383" x2="383" y1="1972.4922" y2="2016.7578"/><line style="stroke:#A80036;stroke-width:1.0;stroke-dasharray:1.0,4.0;" x1="383" x2="383" y1="2016.7578" y2="2057.5625"/><line style="stroke:#A80036;stroke-width:1.0;" x1="383" x2="383" y1="2057.5625" y2="2101.8281"/><line style="stroke:#A80036;stroke-width:1.0;stroke-dasharray:1.0,4.0;" x1="383" x2="383" y1="2101.8281" y2="2142.6328"/><line style="stroke:#A80036;stroke-width:1.0;" x1="383" x2="383" y1="2142.6328" y2="2186.8984"/><line style="stroke:#A80036;stroke-width:1.0;stroke-dasharray:1.0,4.0;" x1="383" x2="383" y1="2186.8984" y2="2227.7031"/><line style="stroke:#A80036;stroke-width:1.0;" x1="383" x2="383" y1="2227.7031" y2="2271.9688"/><line style="stroke:#A80036;stroke-width:1.0;stroke-dasharray:1.0,4.0;" x1="383" x2="383" y1="2271.9688" y2="2312.7734"/><line style="stroke:#A80036;stroke-width:1.0;" x1="383" x2="383" y1="2312.7734" y2="2549.8359"/><line style="stroke:#A80036;stroke-width:1.0;stroke-dasharray:1.0,4.0;" x1="383" x2="383" y1="2549.8359" y2="2590.6406"/><line style="stroke:#A80036;stroke-width:1.0;" x1="383" x2="383" y1="2590.6406" y2="2634.9063"/><line style="stroke:#A80036;stroke-width:1.0;stroke-dasharray:1.0,4.0;" x1="383" x2="383" y1="2634.9063" y2="2675.7109"/><line style="stroke:#A80036;stroke-width:1.0;" x1="383" x2="383" y1="2675.7109" y2="4319.0156"/><line style="stroke:#A80036;stroke-width:1.0;" x1="789" x2="789" y1="89.8906" y2="905.6094"/><line style="stroke:#A80036;stroke-width:1.0;stroke-dasharray:1.0,4.0;" x1="789" x2="789" y1="905.6094" y2="959.2188"/><line style="stroke:#A80036;stroke-width:1.0;" x1="789" x2="789" y1="959.2188" y2="1329.2109"/><line style="stroke:#A80036;stroke-width:1.0;stroke-dasharray:1.0,4.0;" x1="789" x2="789" y1="1329.2109" y2="1370.0156"/><line style="stroke:#A80036;stroke-width:1.0;" x1="789" x2="789" y1="1370.0156" y2="1414.2813"/><line style="stroke:#A80036;stroke-width:1.0;stroke-dasharray:1.0,4.0;" x1="789" x2="789" y1="1414.2813" y2="1455.0859"/><line style="stroke:#A80036;stroke-width:1.0;" x1="789" x2="789" y1="1455.0859" y2="1499.3516"/><line style="stroke:#A80036;stroke-width:1.0;stroke-dasharray:1.0,4.0;" x1="789" x2="789" y1="1499.3516" y2="1540.1563"/><line style="stroke:#A80036;stroke-width:1.0;" x1="789" x2="789" y1="1540.1563" y2="1584.4219"/><line style="stroke:#A80036;stroke-width:1.0;stroke-dasharray:1.0,4.0;" x1="789" x2="789" y1="1584.4219" y2="1625.2266"/><line style="stroke:#A80036;stroke-width:1.0;" x1="789" x2="789" y1="1625.2266" y2="1931.6875"/><line style="stroke:#A80036;stroke-width:1.0;stroke-dasharray:1.0,4.0;" x1="789" x2="789" y1="1931.6875" y2="1972.4922"/><line style="stroke:#A80036;stroke-width:1.0;" x1="789" x2="789" y1="1972.4922" y2="2016.7578"/><line style="stroke:#A80036;stroke-width:1.0;stroke-dasharray:1.0,4.0;" x1="789" x2="789" y1="2016.7578" y2="2057.5625"/><line style="stroke:#A80036;stroke-width:1.0;" x1="789" x2="789" y1="2057.5625" y2="2101.8281"/><line style="stroke:#A80036;stroke-width:1.0;stroke-dasharray:1.0,4.0;" x1="789" x2="789" y1="2101.8281" y2="2142.6328"/><line style="stroke:#A80036;stroke-width:1.0;" x1="789" x2="789" y1="2142.6328" y2="2186.8984"/><line style="stroke:#A80036;stroke-width:1.0;stroke-dasharray:1.0,4.0;" x1="789" x2="789" y1="2186.8984" y2="2227.7031"/><line style="stroke:#A80036;stroke-width:1.0;" x1="789" x2="789" y1="2227.7031" y2="2271.9688"/><line style="stroke:#A80036;stroke-width:1.0;stroke-dasharray:1.0,4.0;" x1="789" x2="789" y1="2271.9688" y2="2312.7734"/><line style="stroke:#A80036;stroke-width:1.0;" x1="789" x2="789" y1="2312.7734" y2="2549.8359"/><line style="stroke:#A80036;stroke-width:1.0;stroke-dasharray:1.0,4.0;" x1="789" x2="789" y1="2549.8359" y2="2590.6406"/><line style="stroke:#A80036;stroke-width:1.0;" x1="789" x2="789" y1="2590.6406" y2="2634.9063"/><line style="stroke:#A80036;stroke-width:1.0;stroke-dasharray:1.0,4.0;" x1="789" x2="789" y1="2634.9063" y2="2675.7109"/><line style="stroke:#A80036;stroke-width:1.0;" x1="789" x2="789" y1="2675.7109" y2="4319.0156"/><line style="stroke:#A80036;stroke-width:1.0;" x1="1071.5" x2="1071.5" y1="89.8906" y2="905.6094"/><line style="stroke:#A80036;stroke-width:1.0;stroke-dasharray:1.0,4.0;" x1="1071.5" x2="1071.5" y1="905.6094" y2="959.2188"/><line style="stroke:#A80036;stroke-width:1.0;" x1="1071.5" x2="1071.5" y1="959.2188" y2="1329.2109"/><line style="stroke:#A80036;stroke-width:1.0;stroke-dasharray:1.0,4.0;" x1="1071.5" x2="1071.5" y1="1329.2109" y2="1370.0156"/><line style="stroke:#A80036;stroke-width:1.0;" x1="1071.5" x2="1071.5" y1="1370.0156" y2="1414.2813"/><line style="stroke:#A80036;stroke-width:1.0;stroke-dasharray:1.0,4.0;" x1="1071.5" x2="1071.5" y1="1414.2813" y2="1455.0859"/><line style="stroke:#A80036;stroke-width:1.0;" x1="1071.5" x2="1071.5" y1="1455.0859" y2="1499.3516"/><line style="stroke:#A80036;stroke-width:1.0;stroke-dasharray:1.0,4.0;" x1="1071.5" x2="1071.5" y1="1499.3516" y2="1540.1563"/><line style="stroke:#A80036;stroke-width:1.0;" x1="1071.5" x2="1071.5" y1="1540.1563" y2="1584.4219"/><line style="stroke:#A80036;stroke-width:1.0;stroke-dasharray:1.0,4.0;" x1="1071.5" x2="1071.5" y1="1584.4219" y2="1625.2266"/><line style="stroke:#A80036;stroke-width:1.0;" x1="1071.5" x2="1071.5" y1="1625.2266" y2="1931.6875"/><line style="stroke:#A80036;stroke-width:1.0;stroke-dasharray:1.0,4.0;" x1="1071.5" x2="1071.5" y1="1931.6875" y2="1972.4922"/><line style="stroke:#A80036;stroke-width:1.0;" x1="1071.5" x2="1071.5" y1="1972.4922" y2="2016.7578"/><line style="stroke:#A80036;stroke-width:1.0;stroke-dasharray:1.0,4.0;" x1="1071.5" x2="1071.5" y1="2016.7578" y2="2057.5625"/><line style="stroke:#A80036;stroke-width:1.0;" x1="1071.5" x2="1071.5" y1="2057.5625" y2="2101.8281"/><line style="stroke:#A80036;stroke-width:1.0;stroke-dasharray:1.0,4.0;" x1="1071.5" x2="1071.5" y1="2101.8281" y2="2142.6328"/><line style="stroke:#A80036;stroke-width:1.0;" x1="1071.5" x2="1071.5" y1="2142.6328" y2="2186.8984"/><line style="stroke:#A80036;stroke-width:1.0;stroke-dasharray:1.0,4.0;" x1="1071.5" x2="1071.5" y1="2186.8984" y2="2227.7031"/><line style="stroke:#A80036;stroke-width:1.0;" x1="1071.5" x2="1071.5" y1="2227.7031" y2="2271.9688"/><line style="stroke:#A80036;stroke-width:1.0;stroke-dasharray:1.0,4.0;" x1="1071.5" x2="1071.5" y1="2271.9688" y2="2312.7734"/><line style="stroke:#A80036;stroke-width:1.0;" x1="1071.5" x2="1071.5" y1="2312.7734" y2="2549.8359"/><line style="stroke:#A80036;stroke-width:1.0;stroke-dasharray:1.0,4.0;" x1="1071.5" x2="1071.5" y1="2549.8359" y2="2590.6406"/><line style="stroke:#A80036;stroke-width:1.0;" x1="1071.5" x2="1071.5" y1="2590.6406" y2="2634.9063"/><line style="stroke:#A80036;stroke-width:1.0;stroke-dasharray:1.0,4.0;" x1="1071.5" x2="1071.5" y1="2634.9063" y2="2675.7109"/><line style="stroke:#A80036;stroke-width:1.0;" x1="1071.5" x2="1071.5" y1="2675.7109" y2="4319.0156"/><rect fill="#FEFECE" filter="url(#f1dsoq8oe767lv)" height="30.2969" rx="5" ry="5" style="stroke:#A80036;stroke-width:1.5;" width="177" x="20" y="54.5938"/><text fill="#000000" font-family="sans-serif" font-size="14" lengthAdjust="spacing" text-decoration="underline" textLength="163" x="27" y="74.5889">LoRa Ground Networks</text><rect fill="#FEFECE" filter="url(#f1dsoq8oe767lv)" height="30.2969" rx="5" ry="5" style="stroke:#A80036;stroke-width:1.5;" width="177" x="20" y="4318.0156"/><text fill="#000000" font-family="sans-serif" font-size="14" lengthAdjust="spacing" text-decoration="underline" textLength="163" x="27" y="4338.0107">LoRa Ground Networks</text><rect fill="#FEFECE" filter="url(#f1dsoq8oe767lv)" height="30.2969" rx="5" ry="5" style="stroke:#A80036;stroke-width:1.5;" width="69" x="347" y="54.5938"/><text fill="#000000" font-family="sans-serif" font-size="14" lengthAdjust="spacing" text-decoration="underline" textLength="55" x="354" y="74.5889">Payload</text><rect fill="#FEFECE" filter="url(#f1dsoq8oe767lv)" height="30.2969" rx="5" ry="5" style="stroke:#A80036;stroke-width:1.5;" width="69" x="347" y="4318.0156"/><text fill="#000000" font-family="sans-serif" font-size="14" lengthAdjust="spacing" text-decoration="underline" textLength="55" x="354" y="4338.0107">Payload</text><rect fill="#FEFECE" filter="url(#f1dsoq8oe767lv)" height="30.2969" rx="5" ry="5" style="stroke:#A80036;stroke-width:1.5;" width="45" x="765" y="54.5938"/><text fill="#000000" font-family="sans-serif" font-size="14" lengthAdjust="spacing" text-decoration="underline" textLength="31" x="772" y="74.5889">OBC</text><rect fill="#FEFECE" filter="url(#f1dsoq8oe767lv)" height="30.2969" rx="5" ry="5" style="stroke:#A80036;stroke-width:1.5;" width="45" x="765" y="4318.0156"/><text fill="#000000" font-family="sans-serif" font-size="14" lengthAdjust="spacing" text-decoration="underline" textLength="31" x="772" y="4338.0107">OBC</text><rect fill="#FEFECE" filter="url(#f1dsoq8oe767lv)" height="30.2969" rx="5" ry="5" style="stroke:#A80036;stroke-width:1.5;" width="136" x="1001.5" y="54.5938"/><text fill="#000000" font-family="sans-serif" font-size="14" lengthAdjust="spacing" text-decoration="underline" textLength="122" x="1008.5" y="74.5889">Ground Segment</text><rect fill="#FEFECE" filter="url(#f1dsoq8oe767lv)" height="30.2969" rx="5" ry="5" style="stroke:#A80036;stroke-width:1.5;" width="136" x="1001.5" y="4318.0156"/><text fill="#000000" font-family="sans-serif" font-size="14" lengthAdjust="spacing" text-decoration="underline" textLength="122" x="1008.5" y="4338.0107">Ground Segment</text><path d="M8,109.8906 L8,169.8906 A5,5 0 0 0 13,174.8906 L203,174.8906 A5,5 0 0 0 208,169.8906 L208,114.8906 L198,104.8906 L13,104.8906 A5,5 0 0 0 8,109.8906 " fill="#FBFB77" filter="url(#f1dsoq8oe767lv)" style="stroke:#A80036;stroke-width:1.0;"/><path d="M198,104.8906 L198,112.3906 A2.5,2.5 0 0 0 200.5,114.8906 L208,114.8906 L198,104.8906 " fill="#FBFB77" style="stroke:#A80036;stroke-width:1.0;"/><text fill="#000000" font-family="sans-serif" font-size="13" lengthAdjust="spacing" textLength="172" x="14" y="121.9575">LoRa Ground Networks are</text><text fill="#000000" font-family="sans-serif" font-size="13" lengthAdjust="spacing" textLength="116" x="14" y="137.0903">ground endpoints,</text><text fill="#000000" font-family="sans-serif" font-size="13" lengthAdjust="spacing" textLength="163" x="14" y="152.2231">and ground base stations</text><text fill="#000000" font-family="sans-serif" font-size="13" lengthAdjust="spacing" textLength="179" x="14" y="167.356">belonging or not to partners</text><rect fill="#EEEEEE" filter="url(#f1dsoq8oe767lv)" height="3" style="stroke:#EEEEEE;stroke-width:1.0;" width="1147" x="0" y="204.9883"/><line style="stroke:#000000;stroke-width:1.0;" x1="0" x2="1147" y1="204.9883" y2="204.9883"/><line style="stroke:#000000;stroke-width:1.0;" x1="0" x2="1147" y1="207.9883" y2="207.9883"/><rect fill="#EEEEEE" filter="url(#f1dsoq8oe767lv)" height="23.1328" style="stroke:#000000;stroke-width:2.0;" width="64" x="541.5" y="194.4219"/><text fill="#000000" font-family="sans-serif" font-size="13" font-weight="bold" lengthAdjust="spacing" textLength="45" x="547.5" y="210.4888">Uplink</text><polygon fill="#A80036" points="800.5,244.6875,790.5,248.6875,800.5,252.6875,796.5,248.6875" style="stroke:#A80036;stroke-width:1.0;"/><line style="stroke:#A80036;stroke-width:2.0;" x1="794.5" x2="1070.5" y1="248.6875" y2="248.6875"/><text fill="#000000" font-family="sans-serif" font-size="13" lengthAdjust="spacing" textLength="206" x="806.5" y="243.6216">Send file (filename="0012.EXP")</text><path d="M744,266.6875 L744,281.6875 A5,5 0 0 0 749,286.6875 L1110,286.6875 A5,5 0 0 0 1115,281.6875 L1115,271.6875 L1105,261.6875 L749,261.6875 A5,5 0 0 0 744,266.6875 " fill="#FBFB77" filter="url(#f1dsoq8oe767lv)" style="stroke:#A80036;stroke-width:1.0;"/><path d="M1105,261.6875 L1105,269.1875 A2.5,2.5 0 0 0 1107.5,271.6875 L1115,271.6875 L1105,261.6875 " fill="#FBFB77" style="stroke:#A80036;stroke-width:1.0;"/><text fill="#000000" font-family="sans-serif" font-size="13" lengthAdjust="spacing" textLength="221" x="812.75" y="278.7544">.EXP file size is less than 2 Kbytes.</text><polygon fill="#A80036" points="800.5,312.9531,790.5,316.9531,800.5,320.9531,796.5,316.9531" style="stroke:#A80036;stroke-width:1.0;"/><line style="stroke:#A80036;stroke-width:2.0;" x1="794.5" x2="1070.5" y1="316.9531" y2="316.9531"/><text fill="#000000" font-family="sans-serif" font-size="13" lengthAdjust="spacing" textLength="193" x="806.5" y="311.8872">Send mission plan for Payload</text><rect fill="#EEEEEE" filter="url(#f1dsoq8oe767lv)" height="3" style="stroke:#EEEEEE;stroke-width:1.0;" width="1147" x="0" y="345.5195"/><line style="stroke:#000000;stroke-width:1.0;" x1="0" x2="1147" y1="345.5195" y2="345.5195"/><line style="stroke:#000000;stroke-width:1.0;" x1="0" x2="1147" y1="348.5195" y2="348.5195"/><rect fill="#EEEEEE" filter="url(#f1dsoq8oe767lv)" height="23.1328" style="stroke:#000000;stroke-width:2.0;" width="78" x="534.5" y="334.9531"/><text fill="#000000" font-family="sans-serif" font-size="13" font-weight="bold" lengthAdjust="spacing" textLength="59" x="540.5" y="351.02">Startup</text><polygon fill="#A80036" points="394.5,385.2188,384.5,389.2188,394.5,393.2188,390.5,389.2188" style="stroke:#A80036;stroke-width:1.0;"/><line style="stroke:#A80036;stroke-width:2.0;" x1="388.5" x2="788.5" y1="389.2188" y2="389.2188"/><text fill="#000000" font-family="sans-serif" font-size="13" lengthAdjust="spacing" textLength="117" x="400.5" y="384.1528">Power On &amp; Reset</text><polygon fill="#A80036" points="777.5,414.3516,787.5,418.3516,777.5,422.3516,781.5,418.3516" style="stroke:#A80036;stroke-width:1.0;"/><line style="stroke:#A80036;stroke-width:2.0;" x1="383.5" x2="783.5" y1="418.3516" y2="418.3516"/><text fill="#000000" font-family="sans-serif" font-size="13" lengthAdjust="spacing" textLength="184" x="390.5" y="413.2856">GetCommandToRunRequest</text><polygon fill="#A80036" points="394.5,443.4844,384.5,447.4844,394.5,451.4844,390.5,447.4844" style="stroke:#A80036;stroke-width:1.0;"/><line style="stroke:#A80036;stroke-width:2.0;stroke-dasharray:2.0,2.0;" x1="388.5" x2="788.5" y1="447.4844" y2="447.4844"/><text fill="#000000" font-family="sans-serif" font-size="13" lengthAdjust="spacing" textLength="350" x="400.5" y="442.4185">GetCommandToRunResponse(command="EXP 0012")</text><path d="M229,462.4844 L333,462.4844 L333,469.4844 L323,479.4844 L224,479.4844 L224,467.4844 A5,5 0 0 1 229,462.4844 " fill="#EEEEEE" style="stroke:#000000;stroke-width:1.0;"/><rect fill="none" height="159.9297" rx="5" ry="5" style="stroke:#000000;stroke-width:2.0;" width="600" x="224" y="462.4844"/><text fill="#000000" font-family="sans-serif" font-size="13" font-weight="bold" lengthAdjust="spacing" textLength="64" x="239" y="475.5513">Get env.</text><path d="M234,489.6172 L234,549.6172 A5,5 0 0 0 239,554.6172 L523,554.6172 A5,5 0 0 0 528,549.6172 L528,494.6172 L518,484.6172 L239,484.6172 A5,5 0 0 0 234,489.6172 " fill="#FBFB77" filter="url(#f1dsoq8oe767lv)" style="stroke:#A80036;stroke-width:1.0;"/><path d="M518,484.6172 L518,492.1172 A2.5,2.5 0 0 0 520.5,494.6172 L528,494.6172 L518,484.6172 " fill="#FBFB77" style="stroke:#A80036;stroke-width:1.0;"/><text fill="#000000" font-family="sans-serif" font-size="13" lengthAdjust="spacing" textLength="35" x="240" y="501.6841">First ,</text><text fill="#000000" font-family="sans-serif" font-size="13" lengthAdjust="spacing" textLength="238" x="240" y="516.8169">the Payload records the env. params</text><text fill="#000000" font-family="sans-serif" font-size="13" lengthAdjust="spacing" textLength="269" x="240" y="531.9497">(timestamp, gps, attitude, battery level ...</text><text fill="#000000" font-family="sans-serif" font-size="13" lengthAdjust="spacing" textLength="247" x="240" y="547.0825">and remaining time before shutdown).</text><polygon fill="#A80036" points="777.5,581.2813,787.5,585.2813,777.5,589.2813,781.5,585.2813" style="stroke:#A80036;stroke-width:1.0;"/><line style="stroke:#A80036;stroke-width:2.0;" x1="383.5" x2="783.5" y1="585.2813" y2="585.2813"/><text fill="#000000" font-family="sans-serif" font-size="13" lengthAdjust="spacing" textLength="100" x="390.5" y="580.2153">GetEnvRequest</text><polygon fill="#A80036" points="394.5,610.4141,384.5,614.4141,394.5,618.4141,390.5,614.4141" style="stroke:#A80036;stroke-width:1.0;"/><line style="stroke:#A80036;stroke-width:2.0;stroke-dasharray:2.0,2.0;" x1="388.5" x2="788.5" y1="614.4141" y2="614.4141"/><text fill="#000000" font-family="sans-serif" font-size="13" lengthAdjust="spacing" textLength="110" x="400.5" y="609.3481">GetEnvResponse</text><path d="M332,636.4141 L529,636.4141 L529,643.4141 L519,653.4141 L327,653.4141 L327,641.4141 A5,5 0 0 1 332,636.4141 " fill="#EEEEEE" style="stroke:#000000;stroke-width:1.0;"/><rect fill="none" height="223.0625" rx="5" ry="5" style="stroke:#000000;stroke-width:2.0;" width="507" x="327" y="636.4141"/><text fill="#000000" font-family="sans-serif" font-size="13" font-weight="bold" lengthAdjust="spacing" textLength="157" x="342" y="649.481">Read file "0012.EXP"</text><polygon fill="#A80036" points="777.5,670.6797,787.5,674.6797,777.5,678.6797,781.5,674.6797" style="stroke:#A80036;stroke-width:1.0;"/><line style="stroke:#A80036;stroke-width:2.0;" x1="383.5" x2="783.5" y1="674.6797" y2="674.6797"/><text fill="#000000" font-family="sans-serif" font-size="13" lengthAdjust="spacing" textLength="346" x="390.5" y="669.6138">OpenFileRequest(filename="0012.EXP", mode=READ)</text><polygon fill="#A80036" points="394.5,699.8125,384.5,703.8125,394.5,707.8125,390.5,703.8125" style="stroke:#A80036;stroke-width:1.0;"/><line style="stroke:#A80036;stroke-width:2.0;stroke-dasharray:2.0,2.0;" x1="388.5" x2="788.5" y1="703.8125" y2="703.8125"/><text fill="#000000" font-family="sans-serif" font-size="13" lengthAdjust="spacing" textLength="118" x="400.5" y="698.7466">OpenFileResponse</text><path d="M342,718.8125 L415,718.8125 L415,725.8125 L405,735.8125 L337,735.8125 L337,723.8125 A5,5 0 0 1 342,718.8125 " fill="#EEEEEE" style="stroke:#000000;stroke-width:1.0;"/><rect fill="none" height="75.3984" rx="5" ry="5" style="stroke:#000000;stroke-width:2.0;" width="487" x="337" y="718.8125"/><text fill="#000000" font-family="sans-serif" font-size="13" font-weight="bold" lengthAdjust="spacing" textLength="33" x="352" y="731.8794">loop</text><polygon fill="#A80036" points="777.5,753.0781,787.5,757.0781,777.5,761.0781,781.5,757.0781" style="stroke:#A80036;stroke-width:1.0;"/><line style="stroke:#A80036;stroke-width:2.0;" x1="383.5" x2="783.5" y1="757.0781" y2="757.0781"/><text fill="#000000" font-family="sans-serif" font-size="13" lengthAdjust="spacing" textLength="164" x="390.5" y="752.0122">ReadFileChunkRequest(s)</text><polygon fill="#A80036" points="394.5,782.2109,384.5,786.2109,394.5,790.2109,390.5,786.2109" style="stroke:#A80036;stroke-width:1.0;"/><line style="stroke:#A80036;stroke-width:2.0;stroke-dasharray:2.0,2.0;" x1="388.5" x2="788.5" y1="786.2109" y2="786.2109"/><text fill="#000000" font-family="sans-serif" font-size="13" lengthAdjust="spacing" textLength="174" x="400.5" y="781.145">ReadFileChunkResponse(s)</text><polygon fill="#A80036" points="777.5,818.3438,787.5,822.3438,777.5,826.3438,781.5,822.3438" style="stroke:#A80036;stroke-width:1.0;"/><line style="stroke:#A80036;stroke-width:2.0;" x1="383.5" x2="783.5" y1="822.3438" y2="822.3438"/><text fill="#000000" font-family="sans-serif" font-size="13" lengthAdjust="spacing" textLength="109" x="390.5" y="817.2778">CloseFileRequest</text><polygon fill="#A80036" points="394.5,847.4766,384.5,851.4766,394.5,855.4766,390.5,851.4766" style="stroke:#A80036;stroke-width:1.0;"/><line style="stroke:#A80036;stroke-width:2.0;stroke-dasharray:2.0,2.0;" x1="388.5" x2="788.5" y1="851.4766" y2="851.4766"/><text fill="#000000" font-family="sans-serif" font-size="13" lengthAdjust="spacing" textLength="119" x="400.5" y="846.4106">CloseFileResponse</text><path d="M216,876.4766 L216,891.4766 A5,5 0 0 0 221,896.4766 L542,896.4766 A5,5 0 0 0 547,891.4766 L547,881.4766 L537,871.4766 L221,871.4766 A5,5 0 0 0 216,876.4766 " fill="#FBFB77" filter="url(#f1dsoq8oe767lv)" style="stroke:#A80036;stroke-width:1.0;"/><path d="M537,871.4766 L537,878.9766 A2.5,2.5 0 0 0 539.5,881.4766 L547,881.4766 L537,871.4766 " fill="#FBFB77" style="stroke:#A80036;stroke-width:1.0;"/><text fill="#000000" font-family="sans-serif" font-size="13" lengthAdjust="spacing" textLength="310" x="222" y="888.5435">A experiment is a sequence of 1 to 32 scenarios</text><text fill="#000000" font-family="sans-serif" font-size="11" lengthAdjust="spacing" textLength="237" x="474.5" y="929.8198">wait seconds before starting the scenario</text><text fill="#000000" font-family="sans-serif" font-size="11" lengthAdjust="spacing" textLength="158" x="510" y="942.6245">at the expected timestamp</text><rect fill="#EEEEEE" filter="url(#f1dsoq8oe767lv)" height="3" style="stroke:#EEEEEE;stroke-width:1.0;" width="1147" x="0" y="979.7852"/><line style="stroke:#000000;stroke-width:1.0;" x1="0" x2="1147" y1="979.7852" y2="979.7852"/><line style="stroke:#000000;stroke-width:1.0;" x1="0" x2="1147" y1="982.7852" y2="982.7852"/><rect fill="#EEEEEE" filter="url(#f1dsoq8oe767lv)" height="23.1328" style="stroke:#000000;stroke-width:2.0;" width="297" x="425" y="969.2188"/><text fill="#000000" font-family="sans-serif" font-size="13" font-weight="bold" lengthAdjust="spacing" textLength="278" x="431" y="985.2856">Begining of the STORE2400 scenario</text><path d="M229,1009.3516 L333,1009.3516 L333,1016.3516 L323,1026.3516 L224,1026.3516 L224,1014.3516 A5,5 0 0 1 229,1009.3516 " fill="#EEEEEE" style="stroke:#000000;stroke-width:1.0;"/><rect fill="none" height="159.9297" rx="5" ry="5" style="stroke:#000000;stroke-width:2.0;" width="600" x="224" y="1009.3516"/><text fill="#000000" font-family="sans-serif" font-size="13" font-weight="bold" lengthAdjust="spacing" textLength="64" x="239" y="1022.4185">Get env.</text><path d="M234,1036.4844 L234,1096.4844 A5,5 0 0 0 239,1101.4844 L523,1101.4844 A5,5 0 0 0 528,1096.4844 L528,1041.4844 L518,1031.4844 L239,1031.4844 A5,5 0 0 0 234,1036.4844 " fill="#FBFB77" filter="url(#f1dsoq8oe767lv)" style="stroke:#A80036;stroke-width:1.0;"/><path d="M518,1031.4844 L518,1038.9844 A2.5,2.5 0 0 0 520.5,1041.4844 L528,1041.4844 L518,1031.4844 " fill="#FBFB77" style="stroke:#A80036;stroke-width:1.0;"/><text fill="#000000" font-family="sans-serif" font-size="13" lengthAdjust="spacing" textLength="143" x="240" y="1048.5513">Before each scenario ,</text><text fill="#000000" font-family="sans-serif" font-size="13" lengthAdjust="spacing" textLength="238" x="240" y="1063.6841">the Payload records the env. params</text><text fill="#000000" font-family="sans-serif" font-size="13" lengthAdjust="spacing" textLength="269" x="240" y="1078.8169">(timestamp, gps, attitude, battery level ...</text><text fill="#000000" font-family="sans-serif" font-size="13" lengthAdjust="spacing" textLength="247" x="240" y="1093.9497">and remaining time before shutdown).</text><polygon fill="#A80036" points="777.5,1128.1484,787.5,1132.1484,777.5,1136.1484,781.5,1132.1484" style="stroke:#A80036;stroke-width:1.0;"/><line style="stroke:#A80036;stroke-width:2.0;" x1="383.5" x2="783.5" y1="1132.1484" y2="1132.1484"/><text fill="#000000" font-family="sans-serif" font-size="13" lengthAdjust="spacing" textLength="100" x="390.5" y="1127.0825">GetEnvRequest</text><polygon fill="#A80036" points="394.5,1157.2813,384.5,1161.2813,394.5,1165.2813,390.5,1161.2813" style="stroke:#A80036;stroke-width:1.0;"/><line style="stroke:#A80036;stroke-width:2.0;stroke-dasharray:2.0,2.0;" x1="388.5" x2="788.5" y1="1161.2813" y2="1161.2813"/><text fill="#000000" font-family="sans-serif" font-size="13" lengthAdjust="spacing" textLength="110" x="400.5" y="1156.2153">GetEnvResponse</text><path d="M15,1183.2813 L235,1183.2813 L235,1190.2813 L225,1200.2813 L10,1200.2813 L10,1188.2813 A5,5 0 0 1 15,1183.2813 " fill="#EEEEEE" style="stroke:#000000;stroke-width:1.0;"/><rect fill="none" height="1729.4922" rx="5" ry="5" style="stroke:#000000;stroke-width:2.0;" width="834" x="10" y="1183.2813"/><text fill="#000000" font-family="sans-serif" font-size="13" font-weight="bold" lengthAdjust="spacing" textLength="180" x="25" y="1196.3481">SX1280 modem started</text><path d="M259,1210.4141 L259,1270.4141 A5,5 0 0 0 264,1275.4141 L499,1275.4141 A5,5 0 0 0 504,1270.4141 L504,1215.4141 L494,1205.4141 L264,1205.4141 A5,5 0 0 0 259,1210.4141 " fill="#FBFB77" filter="url(#f1dsoq8oe767lv)" style="stroke:#A80036;stroke-width:1.0;"/><path d="M494,1205.4141 L494,1212.9141 A2.5,2.5 0 0 0 496.5,1215.4141 L504,1215.4141 L494,1205.4141 " fill="#FBFB77" style="stroke:#A80036;stroke-width:1.0;"/><text fill="#000000" font-family="sans-serif" font-size="13" lengthAdjust="spacing" textLength="224" x="265" y="1222.481">Payload starts the SX1280 modem</text><text fill="#000000" font-family="sans-serif" font-size="13" lengthAdjust="spacing" textLength="166" x="265" y="1237.6138">for receiving LoRa frames</text><text fill="#000000" font-family="sans-serif" font-size="13" lengthAdjust="spacing" textLength="172" x="265" y="1252.7466">from the ground endpoints</text><text fill="#000000" font-family="sans-serif" font-size="13" lengthAdjust="spacing" textLength="183" x="265" y="1267.8794">belonging or not to partners.</text><polygon fill="#A80036" points="371.5,1317.2109,381.5,1321.2109,371.5,1325.2109,375.5,1321.2109" style="stroke:#A80036;stroke-width:1.0;"/><line style="stroke:#A80036;stroke-width:2.0;" x1="110.5" x2="377.5" y1="1321.2109" y2="1321.2109"/><text fill="#000000" font-family="sans-serif" font-size="13" lengthAdjust="spacing" textLength="249" x="117.5" y="1301.0122">LoRa frame (from a partner's network)</text><text fill="#000000" font-family="sans-serif" font-size="13" lengthAdjust="spacing" textLength="182" x="117.5" y="1316.145">Duration : 0.05 to 2 seconds</text><text fill="#000000" font-family="sans-serif" font-size="11" lengthAdjust="spacing" textLength="94" x="544" y="1353.4214">several seconds</text><polygon fill="#A80036" points="371.5,1402.2813,381.5,1406.2813,371.5,1410.2813,375.5,1406.2813" style="stroke:#A80036;stroke-width:1.0;"/><line style="stroke:#A80036;stroke-width:2.0;" x1="110.5" x2="377.5" y1="1406.2813" y2="1406.2813"/><text fill="#000000" font-family="sans-serif" font-size="13" lengthAdjust="spacing" textLength="75" x="117.5" y="1386.0825">LoRa frame</text><text fill="#000000" font-family="sans-serif" font-size="13" lengthAdjust="spacing" textLength="182" x="117.5" y="1401.2153">Duration : 0.05 to 2 seconds</text><text fill="#000000" font-family="sans-serif" font-size="11" lengthAdjust="spacing" textLength="94" x="544" y="1438.4917">several seconds</text><polygon fill="#A80036" points="371.5,1487.3516,381.5,1491.3516,371.5,1495.3516,375.5,1491.3516" style="stroke:#A80036;stroke-width:1.0;"/><line style="stroke:#A80036;stroke-width:2.0;" x1="110.5" x2="377.5" y1="1491.3516" y2="1491.3516"/><text fill="#000000" font-family="sans-serif" font-size="13" lengthAdjust="spacing" textLength="249" x="117.5" y="1471.1528">LoRa frame (from a partner's network)</text><text fill="#000000" font-family="sans-serif" font-size="13" lengthAdjust="spacing" textLength="182" x="117.5" y="1486.2856">Duration : 0.05 to 2 seconds</text><text fill="#000000" font-family="sans-serif" font-size="11" lengthAdjust="spacing" textLength="94" x="544" y="1523.562">several seconds</text><polygon fill="#A80036" points="371.5,1572.4219,381.5,1576.4219,371.5,1580.4219,375.5,1576.4219" style="stroke:#A80036;stroke-width:1.0;"/><line style="stroke:#A80036;stroke-width:2.0;" x1="110.5" x2="377.5" y1="1576.4219" y2="1576.4219"/><text fill="#000000" font-family="sans-serif" font-size="13" lengthAdjust="spacing" textLength="249" x="117.5" y="1556.2231">LoRa frame (from a partner's network)</text><text fill="#000000" font-family="sans-serif" font-size="13" lengthAdjust="spacing" textLength="182" x="117.5" y="1571.356">Duration : 0.05 to 2 seconds</text><text fill="#000000" font-family="sans-serif" font-size="11" lengthAdjust="spacing" textLength="94" x="544" y="1608.6323">several seconds</text><path d="M388,1635.2266 L388,1680.2266 A5,5 0 0 0 393,1685.2266 L618,1685.2266 A5,5 0 0 0 623,1680.2266 L623,1640.2266 L613,1630.2266 L393,1630.2266 A5,5 0 0 0 388,1635.2266 " fill="#FBFB77" filter="url(#f1dsoq8oe767lv)" style="stroke:#A80036;stroke-width:1.0;"/><path d="M613,1630.2266 L613,1637.7266 A2.5,2.5 0 0 0 615.5,1640.2266 L623,1640.2266 L613,1630.2266 " fill="#FBFB77" style="stroke:#A80036;stroke-width:1.0;"/><text fill="#000000" font-family="sans-serif" font-size="13" lengthAdjust="spacing" textLength="162" x="394" y="1647.2935">Payload filter frames and</text><text fill="#000000" font-family="sans-serif" font-size="13" lengthAdjust="spacing" textLength="214" x="394" y="1662.4263">store those belonging to partners</text><text fill="#000000" font-family="sans-serif" font-size="13" lengthAdjust="spacing" textLength="141" x="394" y="1677.5591">into several files .PKT.</text><path d="M332,1701.625 L576,1701.625 L576,1708.625 L566,1718.625 L327,1718.625 L327,1706.625 A5,5 0 0 1 332,1701.625 " fill="#EEEEEE" style="stroke:#000000;stroke-width:1.0;"/><rect fill="none" height="223.0625" rx="5" ry="5" style="stroke:#000000;stroke-width:2.0;" width="507" x="327" y="1701.625"/><text fill="#000000" font-family="sans-serif" font-size="13" font-weight="bold" lengthAdjust="spacing" textLength="204" x="342" y="1714.6919">Write file "00120000.PKT"</text><polygon fill="#A80036" points="777.5,1735.8906,787.5,1739.8906,777.5,1743.8906,781.5,1739.8906" style="stroke:#A80036;stroke-width:1.0;"/><line style="stroke:#A80036;stroke-width:2.0;" x1="383.5" x2="783.5" y1="1739.8906" y2="1739.8906"/><text fill="#000000" font-family="sans-serif" font-size="13" lengthAdjust="spacing" textLength="382" x="390.5" y="1734.8247">OpenFileRequest(filename="00120000.PKT", mode=WRITE)</text><polygon fill="#A80036" points="394.5,1765.0234,384.5,1769.0234,394.5,1773.0234,390.5,1769.0234" style="stroke:#A80036;stroke-width:1.0;"/><line style="stroke:#A80036;stroke-width:2.0;stroke-dasharray:2.0,2.0;" x1="388.5" x2="788.5" y1="1769.0234" y2="1769.0234"/><text fill="#000000" font-family="sans-serif" font-size="13" lengthAdjust="spacing" textLength="118" x="400.5" y="1763.9575">OpenFileResponse</text><path d="M342,1784.0234 L415,1784.0234 L415,1791.0234 L405,1801.0234 L337,1801.0234 L337,1789.0234 A5,5 0 0 1 342,1784.0234 " fill="#EEEEEE" style="stroke:#000000;stroke-width:1.0;"/><rect fill="none" height="75.3984" rx="5" ry="5" style="stroke:#000000;stroke-width:2.0;" width="487" x="337" y="1784.0234"/><text fill="#000000" font-family="sans-serif" font-size="13" font-weight="bold" lengthAdjust="spacing" textLength="33" x="352" y="1797.0903">loop</text><polygon fill="#A80036" points="777.5,1818.2891,787.5,1822.2891,777.5,1826.2891,781.5,1822.2891" style="stroke:#A80036;stroke-width:1.0;"/><line style="stroke:#A80036;stroke-width:2.0;" x1="383.5" x2="783.5" y1="1822.2891" y2="1822.2891"/><text fill="#000000" font-family="sans-serif" font-size="13" lengthAdjust="spacing" textLength="165" x="390.5" y="1817.2231">WriteFileChunkRequest(s)</text><polygon fill="#A80036" points="394.5,1847.4219,384.5,1851.4219,394.5,1855.4219,390.5,1851.4219" style="stroke:#A80036;stroke-width:1.0;"/><line style="stroke:#A80036;stroke-width:2.0;stroke-dasharray:2.0,2.0;" x1="388.5" x2="788.5" y1="1851.4219" y2="1851.4219"/><text fill="#000000" font-family="sans-serif" font-size="13" lengthAdjust="spacing" textLength="175" x="400.5" y="1846.356">WriteFileChunkResponse(s)</text><polygon fill="#A80036" points="777.5,1883.5547,787.5,1887.5547,777.5,1891.5547,781.5,1887.5547" style="stroke:#A80036;stroke-width:1.0;"/><line style="stroke:#A80036;stroke-width:2.0;" x1="383.5" x2="783.5" y1="1887.5547" y2="1887.5547"/><text fill="#000000" font-family="sans-serif" font-size="13" lengthAdjust="spacing" textLength="109" x="390.5" y="1882.4888">CloseFileRequest</text><polygon fill="#A80036" points="394.5,1912.6875,384.5,1916.6875,394.5,1920.6875,390.5,1916.6875" style="stroke:#A80036;stroke-width:1.0;"/><line style="stroke:#A80036;stroke-width:2.0;stroke-dasharray:2.0,2.0;" x1="388.5" x2="788.5" y1="1916.6875" y2="1916.6875"/><text fill="#000000" font-family="sans-serif" font-size="13" lengthAdjust="spacing" textLength="119" x="400.5" y="1911.6216">CloseFileResponse</text><text fill="#000000" font-family="sans-serif" font-size="11" lengthAdjust="spacing" textLength="94" x="544" y="1955.8979">several seconds</text><polygon fill="#A80036" points="371.5,2004.7578,381.5,2008.7578,371.5,2012.7578,375.5,2008.7578" style="stroke:#A80036;stroke-width:1.0;"/><line style="stroke:#A80036;stroke-width:2.0;" x1="110.5" x2="377.5" y1="2008.7578" y2="2008.7578"/><text fill="#000000" font-family="sans-serif" font-size="13" lengthAdjust="spacing" textLength="249" x="117.5" y="1988.5591">LoRa frame (from a partner's network)</text><text fill="#000000" font-family="sans-serif" font-size="13" lengthAdjust="spacing" textLength="182" x="117.5" y="2003.6919">Duration : 0.05 to 2 seconds</text><text fill="#000000" font-family="sans-serif" font-size="11" lengthAdjust="spacing" textLength="94" x="544" y="2040.9683">several seconds</text><polygon fill="#A80036" points="371.5,2089.8281,381.5,2093.8281,371.5,2097.8281,375.5,2093.8281" style="stroke:#A80036;stroke-width:1.0;"/><line style="stroke:#A80036;stroke-width:2.0;" x1="110.5" x2="377.5" y1="2093.8281" y2="2093.8281"/><text fill="#000000" font-family="sans-serif" font-size="13" lengthAdjust="spacing" textLength="249" x="117.5" y="2073.6294">LoRa frame (from a partner's network)</text><text fill="#000000" font-family="sans-serif" font-size="13" lengthAdjust="spacing" textLength="182" x="117.5" y="2088.7622">Duration : 0.05 to 2 seconds</text><text fill="#000000" font-family="sans-serif" font-size="11" lengthAdjust="spacing" textLength="94" x="544" y="2126.0386">several seconds</text><polygon fill="#A80036" points="371.5,2174.8984,381.5,2178.8984,371.5,2182.8984,375.5,2178.8984" style="stroke:#A80036;stroke-width:1.0;"/><line style="stroke:#A80036;stroke-width:2.0;" x1="110.5" x2="377.5" y1="2178.8984" y2="2178.8984"/><text fill="#000000" font-family="sans-serif" font-size="13" lengthAdjust="spacing" textLength="249" x="117.5" y="2158.6997">LoRa frame (from a partner's network)</text><text fill="#000000" font-family="sans-serif" font-size="13" lengthAdjust="spacing" textLength="182" x="117.5" y="2173.8325">Duration : 0.05 to 2 seconds</text><text fill="#000000" font-family="sans-serif" font-size="11" lengthAdjust="spacing" textLength="94" x="544" y="2211.1089">several seconds</text><polygon fill="#A80036" points="371.5,2259.9688,381.5,2263.9688,371.5,2267.9688,375.5,2263.9688" style="stroke:#A80036;stroke-width:1.0;"/><line style="stroke:#A80036;stroke-width:2.0;" x1="110.5" x2="377.5" y1="2263.9688" y2="2263.9688"/><text fill="#000000" font-family="sans-serif" font-size="13" lengthAdjust="spacing" textLength="75" x="117.5" y="2243.77">LoRa frame</text><text fill="#000000" font-family="sans-serif" font-size="13" lengthAdjust="spacing" textLength="182" x="117.5" y="2258.9028">Duration : 0.05 to 2 seconds</text><text fill="#000000" font-family="sans-serif" font-size="11" lengthAdjust="spacing" textLength="94" x="544" y="2296.1792">several seconds</text><path d="M332,2319.7734 L575,2319.7734 L575,2326.7734 L565,2336.7734 L327,2336.7734 L327,2324.7734 A5,5 0 0 1 332,2319.7734 " fill="#EEEEEE" style="stroke:#000000;stroke-width:1.0;"/><rect fill="none" height="223.0625" rx="5" ry="5" style="stroke:#000000;stroke-width:2.0;" width="507" x="327" y="2319.7734"/><text fill="#000000" font-family="sans-serif" font-size="13" font-weight="bold" lengthAdjust="spacing" textLength="203" x="342" y="2332.8403">Write file "00120001.PKT"</text><polygon fill="#A80036" points="777.5,2354.0391,787.5,2358.0391,777.5,2362.0391,781.5,2358.0391" style="stroke:#A80036;stroke-width:1.0;"/><line style="stroke:#A80036;stroke-width:2.0;" x1="383.5" x2="783.5" y1="2358.0391" y2="2358.0391"/><text fill="#000000" font-family="sans-serif" font-size="13" lengthAdjust="spacing" textLength="382" x="390.5" y="2352.9731">OpenFileRequest(filename="00120001.PKT", mode=WRITE)</text><polygon fill="#A80036" points="394.5,2383.1719,384.5,2387.1719,394.5,2391.1719,390.5,2387.1719" style="stroke:#A80036;stroke-width:1.0;"/><line style="stroke:#A80036;stroke-width:2.0;stroke-dasharray:2.0,2.0;" x1="388.5" x2="788.5" y1="2387.1719" y2="2387.1719"/><text fill="#000000" font-family="sans-serif" font-size="13" lengthAdjust="spacing" textLength="118" x="400.5" y="2382.106">OpenFileResponse</text><path d="M342,2402.1719 L415,2402.1719 L415,2409.1719 L405,2419.1719 L337,2419.1719 L337,2407.1719 A5,5 0 0 1 342,2402.1719 " fill="#EEEEEE" style="stroke:#000000;stroke-width:1.0;"/><rect fill="none" height="75.3984" rx="5" ry="5" style="stroke:#000000;stroke-width:2.0;" width="487" x="337" y="2402.1719"/><text fill="#000000" font-family="sans-serif" font-size="13" font-weight="bold" lengthAdjust="spacing" textLength="33" x="352" y="2415.2388">loop</text><polygon fill="#A80036" points="777.5,2436.4375,787.5,2440.4375,777.5,2444.4375,781.5,2440.4375" style="stroke:#A80036;stroke-width:1.0;"/><line style="stroke:#A80036;stroke-width:2.0;" x1="383.5" x2="783.5" y1="2440.4375" y2="2440.4375"/><text fill="#000000" font-family="sans-serif" font-size="13" lengthAdjust="spacing" textLength="165" x="390.5" y="2435.3716">WriteFileChunkRequest(s)</text><polygon fill="#A80036" points="394.5,2465.5703,384.5,2469.5703,394.5,2473.5703,390.5,2469.5703" style="stroke:#A80036;stroke-width:1.0;"/><line style="stroke:#A80036;stroke-width:2.0;stroke-dasharray:2.0,2.0;" x1="388.5" x2="788.5" y1="2469.5703" y2="2469.5703"/><text fill="#000000" font-family="sans-serif" font-size="13" lengthAdjust="spacing" textLength="175" x="400.5" y="2464.5044">WriteFileChunkResponse(s)</text><polygon fill="#A80036" points="777.5,2501.7031,787.5,2505.7031,777.5,2509.7031,781.5,2505.7031" style="stroke:#A80036;stroke-width:1.0;"/><line style="stroke:#A80036;stroke-width:2.0;" x1="383.5" x2="783.5" y1="2505.7031" y2="2505.7031"/><text fill="#000000" font-family="sans-serif" font-size="13" lengthAdjust="spacing" textLength="109" x="390.5" y="2500.6372">CloseFileRequest</text><polygon fill="#A80036" points="394.5,2530.8359,384.5,2534.8359,394.5,2538.8359,390.5,2534.8359" style="stroke:#A80036;stroke-width:1.0;"/><line style="stroke:#A80036;stroke-width:2.0;stroke-dasharray:2.0,2.0;" x1="388.5" x2="788.5" y1="2534.8359" y2="2534.8359"/><text fill="#000000" font-family="sans-serif" font-size="13" lengthAdjust="spacing" textLength="119" x="400.5" y="2529.77">CloseFileResponse</text><text fill="#000000" font-family="sans-serif" font-size="11" lengthAdjust="spacing" textLength="94" x="544" y="2574.0464">several seconds</text><polygon fill="#A80036" points="371.5,2622.9063,381.5,2626.9063,371.5,2630.9063,375.5,2626.9063" style="stroke:#A80036;stroke-width:1.0;"/><line style="stroke:#A80036;stroke-width:2.0;" x1="110.5" x2="377.5" y1="2626.9063" y2="2626.9063"/><text fill="#000000" font-family="sans-serif" font-size="13" lengthAdjust="spacing" textLength="249" x="117.5" y="2606.7075">LoRa frame (from a partner's network)</text><text fill="#000000" font-family="sans-serif" font-size="13" lengthAdjust="spacing" textLength="182" x="117.5" y="2621.8403">Duration : 0.05 to 2 seconds</text><text fill="#000000" font-family="sans-serif" font-size="11" lengthAdjust="spacing" textLength="94" x="544" y="2659.1167">several seconds</text><path d="M332,2682.7109 L575,2682.7109 L575,2689.7109 L565,2699.7109 L327,2699.7109 L327,2687.7109 A5,5 0 0 1 332,2682.7109 " fill="#EEEEEE" style="stroke:#000000;stroke-width:1.0;"/><rect fill="none" height="223.0625" rx="5" ry="5" style="stroke:#000000;stroke-width:2.0;" width="507" x="327" y="2682.7109"/><text fill="#000000" font-family="sans-serif" font-size="13" font-weight="bold" lengthAdjust="spacing" textLength="203" x="342" y="2695.7778">Write file "00120002.PKT"</text><polygon fill="#A80036" points="777.5,2716.9766,787.5,2720.9766,777.5,2724.9766,781.5,2720.9766" style="stroke:#A80036;stroke-width:1.0;"/><line style="stroke:#A80036;stroke-width:2.0;" x1="383.5" x2="783.5" y1="2720.9766" y2="2720.9766"/><text fill="#000000" font-family="sans-serif" font-size="13" lengthAdjust="spacing" textLength="382" x="390.5" y="2715.9106">OpenFileRequest(filename="00120002.PKT", mode=WRITE)</text><polygon fill="#A80036" points="394.5,2746.1094,384.5,2750.1094,394.5,2754.1094,390.5,2750.1094" style="stroke:#A80036;stroke-width:1.0;"/><line style="stroke:#A80036;stroke-width:2.0;stroke-dasharray:2.0,2.0;" x1="388.5" x2="788.5" y1="2750.1094" y2="2750.1094"/><text fill="#000000" font-family="sans-serif" font-size="13" lengthAdjust="spacing" textLength="118" x="400.5" y="2745.0435">OpenFileResponse</text><path d="M342,2765.1094 L415,2765.1094 L415,2772.1094 L405,2782.1094 L337,2782.1094 L337,2770.1094 A5,5 0 0 1 342,2765.1094 " fill="#EEEEEE" style="stroke:#000000;stroke-width:1.0;"/><rect fill="none" height="75.3984" rx="5" ry="5" style="stroke:#000000;stroke-width:2.0;" width="487" x="337" y="2765.1094"/><text fill="#000000" font-family="sans-serif" font-size="13" font-weight="bold" lengthAdjust="spacing" textLength="33" x="352" y="2778.1763">loop</text><polygon fill="#A80036" points="777.5,2799.375,787.5,2803.375,777.5,2807.375,781.5,2803.375" style="stroke:#A80036;stroke-width:1.0;"/><line style="stroke:#A80036;stroke-width:2.0;" x1="383.5" x2="783.5" y1="2803.375" y2="2803.375"/><text fill="#000000" font-family="sans-serif" font-size="13" lengthAdjust="spacing" textLength="165" x="390.5" y="2798.3091">WriteFileChunkRequest(s)</text><polygon fill="#A80036" points="394.5,2828.5078,384.5,2832.5078,394.5,2836.5078,390.5,2832.5078" style="stroke:#A80036;stroke-width:1.0;"/><line style="stroke:#A80036;stroke-width:2.0;stroke-dasharray:2.0,2.0;" x1="388.5" x2="788.5" y1="2832.5078" y2="2832.5078"/><text fill="#000000" font-family="sans-serif" font-size="13" lengthAdjust="spacing" textLength="175" x="400.5" y="2827.4419">WriteFileChunkResponse(s)</text><polygon fill="#A80036" points="777.5,2864.6406,787.5,2868.6406,777.5,2872.6406,781.5,2868.6406" style="stroke:#A80036;stroke-width:1.0;"/><line style="stroke:#A80036;stroke-width:2.0;" x1="383.5" x2="783.5" y1="2868.6406" y2="2868.6406"/><text fill="#000000" font-family="sans-serif" font-size="13" lengthAdjust="spacing" textLength="109" x="390.5" y="2863.5747">CloseFileRequest</text><polygon fill="#A80036" points="394.5,2893.7734,384.5,2897.7734,394.5,2901.7734,390.5,2897.7734" style="stroke:#A80036;stroke-width:1.0;"/><line style="stroke:#A80036;stroke-width:2.0;stroke-dasharray:2.0,2.0;" x1="388.5" x2="788.5" y1="2897.7734" y2="2897.7734"/><text fill="#000000" font-family="sans-serif" font-size="13" lengthAdjust="spacing" textLength="119" x="400.5" y="2892.7075">CloseFileResponse</text><path d="M229,2926.7734 L333,2926.7734 L333,2933.7734 L323,2943.7734 L224,2943.7734 L224,2931.7734 A5,5 0 0 1 229,2926.7734 " fill="#EEEEEE" style="stroke:#000000;stroke-width:1.0;"/><rect fill="none" height="159.9297" rx="5" ry="5" style="stroke:#000000;stroke-width:2.0;" width="600" x="224" y="2926.7734"/><text fill="#000000" font-family="sans-serif" font-size="13" font-weight="bold" lengthAdjust="spacing" textLength="64" x="239" y="2939.8403">Get env.</text><path d="M234,2953.9063 L234,3013.9063 A5,5 0 0 0 239,3018.9063 L523,3018.9063 A5,5 0 0 0 528,3013.9063 L528,2958.9063 L518,2948.9063 L239,2948.9063 A5,5 0 0 0 234,2953.9063 " fill="#FBFB77" filter="url(#f1dsoq8oe767lv)" style="stroke:#A80036;stroke-width:1.0;"/><path d="M518,2948.9063 L518,2956.4063 A2.5,2.5 0 0 0 520.5,2958.9063 L528,2958.9063 L518,2948.9063 " fill="#FBFB77" style="stroke:#A80036;stroke-width:1.0;"/><text fill="#000000" font-family="sans-serif" font-size="13" lengthAdjust="spacing" textLength="133" x="240" y="2965.9731">After each scenario ,</text><text fill="#000000" font-family="sans-serif" font-size="13" lengthAdjust="spacing" textLength="238" x="240" y="2981.106">the Payload records the env. params</text><text fill="#000000" font-family="sans-serif" font-size="13" lengthAdjust="spacing" textLength="269" x="240" y="2996.2388">(timestamp, gps, attitude, battery level ...</text><text fill="#000000" font-family="sans-serif" font-size="13" lengthAdjust="spacing" textLength="247" x="240" y="3011.3716">and remaining time before shutdown).</text><polygon fill="#A80036" points="777.5,3045.5703,787.5,3049.5703,777.5,3053.5703,781.5,3049.5703" style="stroke:#A80036;stroke-width:1.0;"/><line style="stroke:#A80036;stroke-width:2.0;" x1="383.5" x2="783.5" y1="3049.5703" y2="3049.5703"/><text fill="#000000" font-family="sans-serif" font-size="13" lengthAdjust="spacing" textLength="100" x="390.5" y="3044.5044">GetEnvRequest</text><polygon fill="#A80036" points="394.5,3074.7031,384.5,3078.7031,394.5,3082.7031,390.5,3078.7031" style="stroke:#A80036;stroke-width:1.0;"/><line style="stroke:#A80036;stroke-width:2.0;stroke-dasharray:2.0,2.0;" x1="388.5" x2="788.5" y1="3078.7031" y2="3078.7031"/><text fill="#000000" font-family="sans-serif" font-size="13" lengthAdjust="spacing" textLength="110" x="400.5" y="3073.6372">GetEnvResponse</text><path d="M332,3100.7031 L553,3100.7031 L553,3107.7031 L543,3117.7031 L327,3117.7031 L327,3105.7031 A5,5 0 0 1 332,3100.7031 " fill="#EEEEEE" style="stroke:#000000;stroke-width:1.0;"/><rect fill="none" height="262.1953" rx="5" ry="5" style="stroke:#000000;stroke-width:2.0;" width="507" x="327" y="3100.7031"/><text fill="#000000" font-family="sans-serif" font-size="13" font-weight="bold" lengthAdjust="spacing" textLength="181" x="342" y="3113.77">Write file "001200.RES"</text><polygon fill="#A80036" points="777.5,3134.9688,787.5,3138.9688,777.5,3142.9688,781.5,3138.9688" style="stroke:#A80036;stroke-width:1.0;"/><line style="stroke:#A80036;stroke-width:2.0;" x1="383.5" x2="783.5" y1="3138.9688" y2="3138.9688"/><text fill="#000000" font-family="sans-serif" font-size="13" lengthAdjust="spacing" textLength="367" x="390.5" y="3133.9028">OpenFileRequest(filename="001200.RES", mode=WRITE)</text><polygon fill="#A80036" points="394.5,3164.1016,384.5,3168.1016,394.5,3172.1016,390.5,3168.1016" style="stroke:#A80036;stroke-width:1.0;"/><line style="stroke:#A80036;stroke-width:2.0;stroke-dasharray:2.0,2.0;" x1="388.5" x2="788.5" y1="3168.1016" y2="3168.1016"/><text fill="#000000" font-family="sans-serif" font-size="13" lengthAdjust="spacing" textLength="118" x="400.5" y="3163.0356">OpenFileResponse</text><path d="M342,3183.1016 L415,3183.1016 L415,3190.1016 L405,3200.1016 L337,3200.1016 L337,3188.1016 A5,5 0 0 1 342,3183.1016 " fill="#EEEEEE" style="stroke:#000000;stroke-width:1.0;"/><rect fill="none" height="75.3984" rx="5" ry="5" style="stroke:#000000;stroke-width:2.0;" width="487" x="337" y="3183.1016"/><text fill="#000000" font-family="sans-serif" font-size="13" font-weight="bold" lengthAdjust="spacing" textLength="33" x="352" y="3196.1685">loop</text><polygon fill="#A80036" points="777.5,3217.3672,787.5,3221.3672,777.5,3225.3672,781.5,3221.3672" style="stroke:#A80036;stroke-width:1.0;"/><line style="stroke:#A80036;stroke-width:2.0;" x1="383.5" x2="783.5" y1="3221.3672" y2="3221.3672"/><text fill="#000000" font-family="sans-serif" font-size="13" lengthAdjust="spacing" textLength="165" x="390.5" y="3216.3013">WriteFileChunkRequest(s)</text><polygon fill="#A80036" points="394.5,3246.5,384.5,3250.5,394.5,3254.5,390.5,3250.5" style="stroke:#A80036;stroke-width:1.0;"/><line style="stroke:#A80036;stroke-width:2.0;stroke-dasharray:2.0,2.0;" x1="388.5" x2="788.5" y1="3250.5" y2="3250.5"/><text fill="#000000" font-family="sans-serif" font-size="13" lengthAdjust="spacing" textLength="175" x="400.5" y="3245.4341">WriteFileChunkResponse(s)</text><polygon fill="#A80036" points="777.5,3282.6328,787.5,3286.6328,777.5,3290.6328,781.5,3286.6328" style="stroke:#A80036;stroke-width:1.0;"/><line style="stroke:#A80036;stroke-width:2.0;" x1="383.5" x2="783.5" y1="3286.6328" y2="3286.6328"/><text fill="#000000" font-family="sans-serif" font-size="13" lengthAdjust="spacing" textLength="109" x="390.5" y="3281.5669">CloseFileRequest</text><polygon fill="#A80036" points="394.5,3311.7656,384.5,3315.7656,394.5,3319.7656,390.5,3315.7656" style="stroke:#A80036;stroke-width:1.0;"/><line style="stroke:#A80036;stroke-width:2.0;stroke-dasharray:2.0,2.0;" x1="388.5" x2="788.5" y1="3315.7656" y2="3315.7656"/><text fill="#000000" font-family="sans-serif" font-size="13" lengthAdjust="spacing" textLength="119" x="400.5" y="3310.6997">CloseFileResponse</text><path d="M355,3333.7656 L355,3348.7656 A5,5 0 0 0 360,3353.7656 L812,3353.7656 A5,5 0 0 0 817,3348.7656 L817,3338.7656 L807,3328.7656 L360,3328.7656 A5,5 0 0 0 355,3333.7656 " fill="#FBFB77" filter="url(#f1dsoq8oe767lv)" style="stroke:#A80036;stroke-width:1.0;"/><path d="M807,3328.7656 L807,3336.2656 A2.5,2.5 0 0 0 809.5,3338.7656 L817,3338.7656 L807,3328.7656 " fill="#FBFB77" style="stroke:#A80036;stroke-width:1.0;"/><text fill="#000000" font-family="sans-serif" font-size="13" lengthAdjust="spacing" textLength="217" x="471" y="3345.8325">.RES file size is less than 2 KBytes</text><rect fill="#EEEEEE" filter="url(#f1dsoq8oe767lv)" height="3" style="stroke:#EEEEEE;stroke-width:1.0;" width="1147" x="0" y="3390.4648"/><line style="stroke:#000000;stroke-width:1.0;" x1="0" x2="1147" y1="3390.4648" y2="3390.4648"/><line style="stroke:#000000;stroke-width:1.0;" x1="0" x2="1147" y1="3393.4648" y2="3393.4648"/><rect fill="#EEEEEE" filter="url(#f1dsoq8oe767lv)" height="23.1328" style="stroke:#000000;stroke-width:2.0;" width="261" x="443" y="3379.8984"/><text fill="#000000" font-family="sans-serif" font-size="13" font-weight="bold" lengthAdjust="spacing" textLength="242" x="449" y="3395.9653">End of the STORE2400 scenario</text><rect fill="#EEEEEE" filter="url(#f1dsoq8oe767lv)" height="3" style="stroke:#EEEEEE;stroke-width:1.0;" width="1147" x="0" y="3433.5977"/><line style="stroke:#000000;stroke-width:1.0;" x1="0" x2="1147" y1="3433.5977" y2="3433.5977"/><line style="stroke:#000000;stroke-width:1.0;" x1="0" x2="1147" y1="3436.5977" y2="3436.5977"/><rect fill="#EEEEEE" filter="url(#f1dsoq8oe767lv)" height="23.1328" style="stroke:#000000;stroke-width:2.0;" width="157" x="495" y="3423.0313"/><text fill="#000000" font-family="sans-serif" font-size="13" font-weight="bold" lengthAdjust="spacing" textLength="138" x="501" y="3439.0981">Start of diagnosis</text><path d="M229,3463.1641 L333,3463.1641 L333,3470.1641 L323,3480.1641 L224,3480.1641 L224,3468.1641 A5,5 0 0 1 229,3463.1641 " fill="#EEEEEE" style="stroke:#000000;stroke-width:1.0;"/><rect fill="none" height="159.9297" rx="5" ry="5" style="stroke:#000000;stroke-width:2.0;" width="600" x="224" y="3463.1641"/><text fill="#000000" font-family="sans-serif" font-size="13" font-weight="bold" lengthAdjust="spacing" textLength="64" x="239" y="3476.231">Get env.</text><path d="M234,3490.2969 L234,3550.2969 A5,5 0 0 0 239,3555.2969 L523,3555.2969 A5,5 0 0 0 528,3550.2969 L528,3495.2969 L518,3485.2969 L239,3485.2969 A5,5 0 0 0 234,3490.2969 " fill="#FBFB77" filter="url(#f1dsoq8oe767lv)" style="stroke:#A80036;stroke-width:1.0;"/><path d="M518,3485.2969 L518,3492.7969 A2.5,2.5 0 0 0 520.5,3495.2969 L528,3495.2969 L518,3485.2969 " fill="#FBFB77" style="stroke:#A80036;stroke-width:1.0;"/><text fill="#000000" font-family="sans-serif" font-size="13" lengthAdjust="spacing" textLength="96" x="240" y="3502.3638">For diagnosis, ,</text><text fill="#000000" font-family="sans-serif" font-size="13" lengthAdjust="spacing" textLength="238" x="240" y="3517.4966">the Payload records the env. params</text><text fill="#000000" font-family="sans-serif" font-size="13" lengthAdjust="spacing" textLength="269" x="240" y="3532.6294">(timestamp, gps, attitude, battery level ...</text><text fill="#000000" font-family="sans-serif" font-size="13" lengthAdjust="spacing" textLength="247" x="240" y="3547.7622">and remaining time before shutdown).</text><polygon fill="#A80036" points="777.5,3581.9609,787.5,3585.9609,777.5,3589.9609,781.5,3585.9609" style="stroke:#A80036;stroke-width:1.0;"/><line style="stroke:#A80036;stroke-width:2.0;" x1="383.5" x2="783.5" y1="3585.9609" y2="3585.9609"/><text fill="#000000" font-family="sans-serif" font-size="13" lengthAdjust="spacing" textLength="100" x="390.5" y="3580.895">GetEnvRequest</text><polygon fill="#A80036" points="394.5,3611.0938,384.5,3615.0938,394.5,3619.0938,390.5,3615.0938" style="stroke:#A80036;stroke-width:1.0;"/><line style="stroke:#A80036;stroke-width:2.0;stroke-dasharray:2.0,2.0;" x1="388.5" x2="788.5" y1="3615.0938" y2="3615.0938"/><text fill="#000000" font-family="sans-serif" font-size="13" lengthAdjust="spacing" textLength="110" x="400.5" y="3610.0278">GetEnvResponse</text><path d="M332,3637.0938 L531,3637.0938 L531,3644.0938 L521,3654.0938 L327,3654.0938 L327,3642.0938 A5,5 0 0 1 332,3637.0938 " fill="#EEEEEE" style="stroke:#000000;stroke-width:1.0;"/><rect fill="none" height="262.1953" rx="5" ry="5" style="stroke:#000000;stroke-width:2.0;" width="507" x="327" y="3637.0938"/><text fill="#000000" font-family="sans-serif" font-size="13" font-weight="bold" lengthAdjust="spacing" textLength="159" x="342" y="3650.1606">Write file "0012.DIA"</text><polygon fill="#A80036" points="777.5,3671.3594,787.5,3675.3594,777.5,3679.3594,781.5,3675.3594" style="stroke:#A80036;stroke-width:1.0;"/><line style="stroke:#A80036;stroke-width:2.0;" x1="383.5" x2="783.5" y1="3675.3594" y2="3675.3594"/><text fill="#000000" font-family="sans-serif" font-size="13" lengthAdjust="spacing" textLength="348" x="390.5" y="3670.2935">OpenFileRequest(filename="0012.DIA", mode=WRITE)</text><polygon fill="#A80036" points="394.5,3700.4922,384.5,3704.4922,394.5,3708.4922,390.5,3704.4922" style="stroke:#A80036;stroke-width:1.0;"/><line style="stroke:#A80036;stroke-width:2.0;stroke-dasharray:2.0,2.0;" x1="388.5" x2="788.5" y1="3704.4922" y2="3704.4922"/><text fill="#000000" font-family="sans-serif" font-size="13" lengthAdjust="spacing" textLength="118" x="400.5" y="3699.4263">OpenFileResponse</text><path d="M342,3719.4922 L415,3719.4922 L415,3726.4922 L405,3736.4922 L337,3736.4922 L337,3724.4922 A5,5 0 0 1 342,3719.4922 " fill="#EEEEEE" style="stroke:#000000;stroke-width:1.0;"/><rect fill="none" height="75.3984" rx="5" ry="5" style="stroke:#000000;stroke-width:2.0;" width="487" x="337" y="3719.4922"/><text fill="#000000" font-family="sans-serif" font-size="13" font-weight="bold" lengthAdjust="spacing" textLength="33" x="352" y="3732.5591">loop</text><polygon fill="#A80036" points="777.5,3753.7578,787.5,3757.7578,777.5,3761.7578,781.5,3757.7578" style="stroke:#A80036;stroke-width:1.0;"/><line style="stroke:#A80036;stroke-width:2.0;" x1="383.5" x2="783.5" y1="3757.7578" y2="3757.7578"/><text fill="#000000" font-family="sans-serif" font-size="13" lengthAdjust="spacing" textLength="165" x="390.5" y="3752.6919">WriteFileChunkRequest(s)</text><polygon fill="#A80036" points="394.5,3782.8906,384.5,3786.8906,394.5,3790.8906,390.5,3786.8906" style="stroke:#A80036;stroke-width:1.0;"/><line style="stroke:#A80036;stroke-width:2.0;stroke-dasharray:2.0,2.0;" x1="388.5" x2="788.5" y1="3786.8906" y2="3786.8906"/><text fill="#000000" font-family="sans-serif" font-size="13" lengthAdjust="spacing" textLength="175" x="400.5" y="3781.8247">WriteFileChunkResponse(s)</text><polygon fill="#A80036" points="777.5,3819.0234,787.5,3823.0234,777.5,3827.0234,781.5,3823.0234" style="stroke:#A80036;stroke-width:1.0;"/><line style="stroke:#A80036;stroke-width:2.0;" x1="383.5" x2="783.5" y1="3823.0234" y2="3823.0234"/><text fill="#000000" font-family="sans-serif" font-size="13" lengthAdjust="spacing" textLength="109" x="390.5" y="3817.9575">CloseFileRequest</text><polygon fill="#A80036" points="394.5,3848.1563,384.5,3852.1563,394.5,3856.1563,390.5,3852.1563" style="stroke:#A80036;stroke-width:1.0;"/><line style="stroke:#A80036;stroke-width:2.0;stroke-dasharray:2.0,2.0;" x1="388.5" x2="788.5" y1="3852.1563" y2="3852.1563"/><text fill="#000000" font-family="sans-serif" font-size="13" lengthAdjust="spacing" textLength="119" x="400.5" y="3847.0903">CloseFileResponse</text><path d="M355,3870.1563 L355,3885.1563 A5,5 0 0 0 360,3890.1563 L812,3890.1563 A5,5 0 0 0 817,3885.1563 L817,3875.1563 L807,3865.1563 L360,3865.1563 A5,5 0 0 0 355,3870.1563 " fill="#FBFB77" filter="url(#f1dsoq8oe767lv)" style="stroke:#A80036;stroke-width:1.0;"/><path d="M807,3865.1563 L807,3872.6563 A2.5,2.5 0 0 0 809.5,3875.1563 L817,3875.1563 L807,3865.1563 " fill="#FBFB77" style="stroke:#A80036;stroke-width:1.0;"/><text fill="#000000" font-family="sans-serif" font-size="13" lengthAdjust="spacing" textLength="226" x="466.5" y="3882.2231">.DIA file size is less than 0.2 Kbytes</text><rect fill="#EEEEEE" filter="url(#f1dsoq8oe767lv)" height="3" style="stroke:#EEEEEE;stroke-width:1.0;" width="1147" x="0" y="3926.8555"/><line style="stroke:#000000;stroke-width:1.0;" x1="0" x2="1147" y1="3926.8555" y2="3926.8555"/><line style="stroke:#000000;stroke-width:1.0;" x1="0" x2="1147" y1="3929.8555" y2="3929.8555"/><rect fill="#EEEEEE" filter="url(#f1dsoq8oe767lv)" height="23.1328" style="stroke:#000000;stroke-width:2.0;" width="143" x="502" y="3916.2891"/><text fill="#000000" font-family="sans-serif" font-size="13" font-weight="bold" lengthAdjust="spacing" textLength="124" x="508" y="3932.356">End of diagnosis</text><rect fill="#EEEEEE" filter="url(#f1dsoq8oe767lv)" height="3" style="stroke:#EEEEEE;stroke-width:1.0;" width="1147" x="0" y="3969.9883"/><line style="stroke:#000000;stroke-width:1.0;" x1="0" x2="1147" y1="3969.9883" y2="3969.9883"/><line style="stroke:#000000;stroke-width:1.0;" x1="0" x2="1147" y1="3972.9883" y2="3972.9883"/><rect fill="#EEEEEE" filter="url(#f1dsoq8oe767lv)" height="23.1328" style="stroke:#000000;stroke-width:2.0;" width="94" x="526.5" y="3959.4219"/><text fill="#000000" font-family="sans-serif" font-size="13" font-weight="bold" lengthAdjust="spacing" textLength="75" x="532.5" y="3975.4888">Shutdown</text><polygon fill="#A80036" points="777.5,4009.6875,787.5,4013.6875,777.5,4017.6875,781.5,4013.6875" style="stroke:#A80036;stroke-width:1.0;"/><line style="stroke:#A80036;stroke-width:2.0;" x1="383.5" x2="783.5" y1="4013.6875" y2="4013.6875"/><text fill="#000000" font-family="sans-serif" font-size="13" lengthAdjust="spacing" textLength="117" x="390.5" y="4008.6216">ShutdownRequest</text><polygon fill="#A80036" points="394.5,4038.8203,384.5,4042.8203,394.5,4046.8203,390.5,4042.8203" style="stroke:#A80036;stroke-width:1.0;"/><line style="stroke:#A80036;stroke-width:2.0;stroke-dasharray:2.0,2.0;" x1="388.5" x2="788.5" y1="4042.8203" y2="4042.8203"/><text fill="#000000" font-family="sans-serif" font-size="13" lengthAdjust="spacing" textLength="64" x="400.5" y="4037.7544">Shutdown</text><rect fill="#EEEEEE" filter="url(#f1dsoq8oe767lv)" height="3" style="stroke:#EEEEEE;stroke-width:1.0;" width="1147" x="0" y="4071.3867"/><line style="stroke:#000000;stroke-width:1.0;" x1="0" x2="1147" y1="4071.3867" y2="4071.3867"/><line style="stroke:#000000;stroke-width:1.0;" x1="0" x2="1147" y1="4074.3867" y2="4074.3867"/><rect fill="#EEEEEE" filter="url(#f1dsoq8oe767lv)" height="23.1328" style="stroke:#000000;stroke-width:2.0;" width="87" x="530" y="4060.8203"/><text fill="#000000" font-family="sans-serif" font-size="13" font-weight="bold" lengthAdjust="spacing" textLength="68" x="536" y="4076.8872">Downlink</text><polygon fill="#A80036" points="1059.5,4111.0859,1069.5,4115.0859,1059.5,4119.0859,1063.5,4115.0859" style="stroke:#A80036;stroke-width:1.0;"/><line style="stroke:#A80036;stroke-width:2.0;" x1="789.5" x2="1065.5" y1="4115.0859" y2="4115.0859"/><text fill="#000000" font-family="sans-serif" font-size="13" lengthAdjust="spacing" textLength="243" x="796.5" y="4110.02">Send file with filename="001200.RES"</text><path d="M718,4133.0859 L718,4178.0859 A5,5 0 0 0 723,4183.0859 L1133,4183.0859 A5,5 0 0 0 1138,4178.0859 L1138,4138.0859 L1128,4128.0859 L723,4128.0859 A5,5 0 0 0 718,4133.0859 " fill="#FBFB77" filter="url(#f1dsoq8oe767lv)" style="stroke:#A80036;stroke-width:1.0;"/><path d="M1128,4128.0859 L1128,4135.5859 A2.5,2.5 0 0 0 1130.5,4138.0859 L1138,4138.0859 L1128,4128.0859 " fill="#FBFB77" style="stroke:#A80036;stroke-width:1.0;"/><text fill="#000000" font-family="sans-serif" font-size="13" lengthAdjust="spacing" textLength="359" x="724" y="4145.1528">.PKT files total size is less than 730 Kbytes per scenario.</text><text fill="#000000" font-family="sans-serif" font-size="13" lengthAdjust="spacing" textLength="399" x="724" y="4160.2856">However, the size can be limited into the scenario parameters</text><text fill="#000000" font-family="sans-serif" font-size="13" lengthAdjust="spacing" textLength="340" x="724" y="4175.4185">according to the dialy downlink quota of the Payload.</text><polygon fill="#A80036" points="1059.5,4209.6172,1069.5,4213.6172,1059.5,4217.6172,1063.5,4213.6172" style="stroke:#A80036;stroke-width:1.0;"/><line style="stroke:#A80036;stroke-width:2.0;" x1="789.5" x2="1065.5" y1="4213.6172" y2="4213.6172"/><text fill="#000000" font-family="sans-serif" font-size="13" lengthAdjust="spacing" textLength="258" x="796.5" y="4208.5513">Send file with filename="00120000.PKT"</text><polygon fill="#A80036" points="1059.5,4238.75,1069.5,4242.75,1059.5,4246.75,1063.5,4242.75" style="stroke:#A80036;stroke-width:1.0;"/><line style="stroke:#A80036;stroke-width:2.0;" x1="789.5" x2="1065.5" y1="4242.75" y2="4242.75"/><text fill="#000000" font-family="sans-serif" font-size="13" lengthAdjust="spacing" textLength="258" x="796.5" y="4237.6841">Send file with filename="00120001.PKT"</text><polygon fill="#A80036" points="1059.5,4267.8828,1069.5,4271.8828,1059.5,4275.8828,1063.5,4271.8828" style="stroke:#A80036;stroke-width:1.0;"/><line style="stroke:#A80036;stroke-width:2.0;" x1="789.5" x2="1065.5" y1="4271.8828" y2="4271.8828"/><text fill="#000000" font-family="sans-serif" font-size="13" lengthAdjust="spacing" textLength="258" x="796.5" y="4266.8169">Send file with filename="00120002.PKT"</text><polygon fill="#A80036" points="1059.5,4297.0156,1069.5,4301.0156,1059.5,4305.0156,1063.5,4301.0156" style="stroke:#A80036;stroke-width:1.0;"/><line style="stroke:#A80036;stroke-width:2.0;" x1="789.5" x2="1065.5" y1="4301.0156" y2="4301.0156"/><text fill="#000000" font-family="sans-serif" font-size="13" lengthAdjust="spacing" textLength="224" x="796.5" y="4295.9497">Send file with filename="0012.DIA"</text><text fill="#888888" font-family="sans-serif" font-size="10" lengthAdjust="spacing" textLength="387" x="760" y="14.2822">Thingsat Mission Scenario :: Store 2400   - Sat Feb 05 09:22:31 UTC 2022</text><text fill="#888888" font-family="sans-serif" font-size="10" lengthAdjust="spacing" textLength="382" x="382.5" y="4366.5947">(c) UGA, CSUG, 2020-2022 - Page 1 of 1  - Sat Feb 05 09:22:31 UTC 2022</text><!--MD5=[8f9ed2d77b9fff3e9e2535fb12df30f4]
@startuml
' =======================================
' Thingsat :: Mission Scenario
' (c) CSUG, UGA, 2020-2022
' =======================================

' =======================================
' Common procedures and functions
' =======================================

' - - - - - - - - - - - - - - - - - - - - - - - - - - - - - - - - - - - - - - -
!procedure $introduction($scenario)

skinparam sequenceArrowThickness 2
skinparam roundcorner 10
skinparam sequenceParticipant underline
header Thingsat Mission Scenario :: $scenario   - %date()
footer (c) UGA, CSUG, 2020-2022 - Page %page% of %lastpage%  - %date()

title Thingsat Mission Scenario :: $scenario

participant "LoRa Ground Networks" as LoRa
participant Payload
participant OBC
participant "Ground Segment" as GroundSegment

note over LoRa: LoRa Ground Networks are\nground endpoints,\nand ground base stations\nbelonging or not to partners

!endprocedure

' - - - - - - - - - - - - - - - - - - - - - - - - - - - - - - - - - - - - - - -
!procedure $begin($cmdline)
== Startup ==

Payload<-OBC : Power On & Reset

Payload->OBC : GetCommandToRunRequest
Payload<- -OBC : GetCommandToRunResponse(command="$cmdline")

%invoke_procedure("$getenv", "First")

!endprocedure


' - - - - - - - - - - - - - - - - - - - - - - - - - - - - - - - - - - - - - - -
!procedure $readfile($filename)

group Read file "$filename"

Payload->OBC : OpenFileRequest(filename="$filename", mode=READ)
Payload<- -OBC : OpenFileResponse
loop
Payload->OBC : ReadFileChunkRequest(s)
Payload<- -OBC : ReadFileChunkResponse(s)
end
Payload->OBC : CloseFileRequest
Payload<- -OBC : CloseFileResponse

end

!endprocedure

' - - - - - - - - - - - - - - - - - - - - - - - - - - - - - - - - - - - - - - -
!procedure $writefile($filename)

group Write file "$filename"

Payload->OBC : OpenFileRequest(filename="$filename", mode=WRITE)
Payload<- -OBC : OpenFileResponse
loop
Payload->OBC : WriteFileChunkRequest(s)
Payload<- -OBC : WriteFileChunkResponse(s)
end
Payload->OBC : CloseFileRequest
Payload<- -OBC : CloseFileResponse

end

!endprocedure

' - - - - - - - - - - - - - - - - - - - - - - - - - - - - - - - - - - - - - - -
!procedure $getenv($txt)
group Get env.

note over Payload: $txt ,\nthe Payload records the env. params\n(timestamp, gps, attitude, battery level ... \nand remaining time before shutdown).

Payload->OBC : GetEnvRequest
Payload<- -OBC : GetEnvResponse

end
!endprocedure

' - - - - - - - - - - - - - - - - - - - - - - - - - - - - - - - - - - - - - - -
!procedure $beginning_scenario($title)

... wait seconds before starting the scenario\nat the expected timestamp ...

== Begining of the $title scenario ==

%invoke_procedure("$getenv", "Before each scenario")

group SX1280 modem started

note over of Payload: Payload starts the SX1280 modem\nfor receiving LoRa frames\nfrom the ground endpoints\nbelonging or not to partners.

!endprocedure

' - - - - - - - - - - - - - - - - - - - - - - - - - - - - - - - - - - - - - - -
!procedure $end_scenario($title,$filename)
end
%invoke_procedure("$getenv", "After each scenario")

group Write file "$filename"

Payload->OBC : OpenFileRequest(filename="$filename", mode=WRITE)
Payload<- -OBC : OpenFileResponse
loop
Payload->OBC : WriteFileChunkRequest(s)
Payload<- -OBC : WriteFileChunkResponse(s)
end
Payload->OBC : CloseFileRequest
Payload<- -OBC : CloseFileResponse

note over Payload, OBC: .RES file size is less than 2 KBytes

end

== End of the $title scenario ==

!endprocedure

' - - - - - - - - - - - - - - - - - - - - - - - - - - - - - - - - - - - - - - -
!procedure $diagnosis($filename)
== Start of diagnosis ==

%invoke_procedure("$getenv", "For diagnosis,")

group Write file "$filename"

Payload->OBC : OpenFileRequest(filename="$filename", mode=WRITE)
Payload<- -OBC : OpenFileResponse
loop
Payload->OBC : WriteFileChunkRequest(s)
Payload<- -OBC : WriteFileChunkResponse(s)
end
Payload->OBC : CloseFileRequest
Payload<- -OBC : CloseFileResponse

note over Payload, OBC: .DIA file size is less than 0.2 Kbytes
end
== End of diagnosis ==
!endprocedure

' - - - - - - - - - - - - - - - - - - - - - - - - - - - - - - - - - - - - - - -
!procedure $shutdown()

== Shutdown ==

Payload->OBC : ShutdownRequest

Payload<- -OBC : Shutdown

!endprocedure


' =======================================
' Variables
' =======================================

' TODO

' =======================================
' Scenario
' =======================================

%invoke_procedure("$introduction", "Store 2400")

== Uplink ==

OBC<-GroundSegment : Send file (filename="0012.EXP")

note over OBC, GroundSegment: .EXP file size is less than 2 Kbytes.

OBC<-GroundSegment : Send mission plan for Payload

%invoke_procedure("$begin", "EXP 0012")

%invoke_procedure("$readfile", "0012.EXP")

note over Payload: A experiment is a sequence of 1 to 32 scenarios

' - - - - - - - - - - - - - - - - - - - - - - - - - - - - - - - - - - - - - - -

%invoke_procedure("$beginning_scenario", "STORE2400")

' - - - - - - - - - - - - - - - - - - - - - - - - - - - - - - - - - - - - - - -

LoRa->Payload : LoRa frame (from a partner's network)\nDuration : 0.05 to 2 seconds

... several seconds ...

LoRa->Payload : LoRa frame\nDuration : 0.05 to 2 seconds

... several seconds ...

LoRa->Payload : LoRa frame (from a partner's network)\nDuration : 0.05 to 2 seconds

... several seconds ...

LoRa->Payload : LoRa frame (from a partner's network)\nDuration : 0.05 to 2 seconds

... several seconds ...

note right of Payload: Payload filter frames and\nstore those belonging to partners\ninto several files .PKT.

%invoke_procedure("$writefile", "00120000.PKT")

... several seconds ...

LoRa->Payload : LoRa frame (from a partner's network)\nDuration : 0.05 to 2 seconds

... several seconds ...

LoRa->Payload : LoRa frame (from a partner's network)\nDuration : 0.05 to 2 seconds

... several seconds ...

LoRa->Payload : LoRa frame (from a partner's network)\nDuration : 0.05 to 2 seconds

... several seconds ...

LoRa->Payload : LoRa frame\nDuration : 0.05 to 2 seconds

... several seconds ...

%invoke_procedure("$writefile", "00120001.PKT")

... several seconds ...

LoRa->Payload : LoRa frame (from a partner's network)\nDuration : 0.05 to 2 seconds

... several seconds ...

%invoke_procedure("$writefile", "00120002.PKT")

%invoke_procedure("$end_scenario", "STORE2400", "001200.RES")

' - - - - - - - - - - - - - - - - - - - - - - - - - - - - - - - - - - - - - - -

%invoke_procedure("$diagnosis", "0012.DIA")

%invoke_procedure("$shutdown")

== Downlink ==

OBC->GroundSegment : Send file with filename="001200.RES"

note over OBC, GroundSegment: .PKT files total size is less than 730 Kbytes per scenario.\nHowever, the size can be limited into the scenario parameters\naccording to the dialy downlink quota of the Payload.

OBC->GroundSegment : Send file with filename="00120000.PKT"
OBC->GroundSegment : Send file with filename="00120001.PKT"
OBC->GroundSegment : Send file with filename="00120002.PKT"
OBC->GroundSegment : Send file with filename="0012.DIA"
@enduml

@startuml

















skinparam sequenceArrowThickness 2
skinparam roundcorner 10
skinparam sequenceParticipant underline
header Thingsat Mission Scenario :: Store 2400   - Sat Feb 05 09:22:31 UTC 2022
footer (c) UGA, CSUG, 2020-2022 - Page %page% of %lastpage%  - Sat Feb 05 09:22:31 UTC 2022

title Thingsat Mission Scenario :: Store 2400

participant "LoRa Ground Networks" as LoRa
participant Payload
participant OBC
participant "Ground Segment" as GroundSegment

note over LoRa: LoRa Ground Networks are\nground endpoints,\nand ground base stations\nbelonging or not to partners


== Uplink ==

OBC<-GroundSegment : Send file (filename="0012.EXP")

note over OBC, GroundSegment: .EXP file size is less than 2 Kbytes.

OBC<-GroundSegment : Send mission plan for Payload

== Startup ==

Payload<-OBC : Power On & Reset

Payload->OBC : GetCommandToRunRequest
Payload<- -OBC : GetCommandToRunResponse(command="EXP 0012")

group Get env.

note over Payload: First ,\nthe Payload records the env. params\n(timestamp, gps, attitude, battery level ... \nand remaining time before shutdown).

Payload->OBC : GetEnvRequest
Payload<- -OBC : GetEnvResponse

end



group Read file "0012.EXP"

Payload->OBC : OpenFileRequest(filename="0012.EXP", mode=READ)
Payload<- -OBC : OpenFileResponse
loop
Payload->OBC : ReadFileChunkRequest(s)
Payload<- -OBC : ReadFileChunkResponse(s)
end
Payload->OBC : CloseFileRequest
Payload<- -OBC : CloseFileResponse

end


note over Payload: A experiment is a sequence of 1 to 32 scenarios



... wait seconds before starting the scenario\nat the expected timestamp ...

== Begining of the STORE2400 scenario ==

group Get env.

note over Payload: Before each scenario ,\nthe Payload records the env. params\n(timestamp, gps, attitude, battery level ... \nand remaining time before shutdown).

Payload->OBC : GetEnvRequest
Payload<- -OBC : GetEnvResponse

end

group SX1280 modem started

note over of Payload: Payload starts the SX1280 modem\nfor receiving LoRa frames\nfrom the ground endpoints\nbelonging or not to partners.



LoRa->Payload : LoRa frame (from a partner's network)\nDuration : 0.05 to 2 seconds

... several seconds ...

LoRa->Payload : LoRa frame\nDuration : 0.05 to 2 seconds

... several seconds ...

LoRa->Payload : LoRa frame (from a partner's network)\nDuration : 0.05 to 2 seconds

... several seconds ...

LoRa->Payload : LoRa frame (from a partner's network)\nDuration : 0.05 to 2 seconds

... several seconds ...

note right of Payload: Payload filter frames and\nstore those belonging to partners\ninto several files .PKT.


group Write file "00120000.PKT"

Payload->OBC : OpenFileRequest(filename="00120000.PKT", mode=WRITE)
Payload<- -OBC : OpenFileResponse
loop
Payload->OBC : WriteFileChunkRequest(s)
Payload<- -OBC : WriteFileChunkResponse(s)
end
Payload->OBC : CloseFileRequest
Payload<- -OBC : CloseFileResponse

end


... several seconds ...

LoRa->Payload : LoRa frame (from a partner's network)\nDuration : 0.05 to 2 seconds

... several seconds ...

LoRa->Payload : LoRa frame (from a partner's network)\nDuration : 0.05 to 2 seconds

... several seconds ...

LoRa->Payload : LoRa frame (from a partner's network)\nDuration : 0.05 to 2 seconds

... several seconds ...

LoRa->Payload : LoRa frame\nDuration : 0.05 to 2 seconds

... several seconds ...


group Write file "00120001.PKT"

Payload->OBC : OpenFileRequest(filename="00120001.PKT", mode=WRITE)
Payload<- -OBC : OpenFileResponse
loop
Payload->OBC : WriteFileChunkRequest(s)
Payload<- -OBC : WriteFileChunkResponse(s)
end
Payload->OBC : CloseFileRequest
Payload<- -OBC : CloseFileResponse

end


... several seconds ...

LoRa->Payload : LoRa frame (from a partner's network)\nDuration : 0.05 to 2 seconds

... several seconds ...


group Write file "00120002.PKT"

Payload->OBC : OpenFileRequest(filename="00120002.PKT", mode=WRITE)
Payload<- -OBC : OpenFileResponse
loop
Payload->OBC : WriteFileChunkRequest(s)
Payload<- -OBC : WriteFileChunkResponse(s)
end
Payload->OBC : CloseFileRequest
Payload<- -OBC : CloseFileResponse

end


end
group Get env.

note over Payload: After each scenario ,\nthe Payload records the env. params\n(timestamp, gps, attitude, battery level ... \nand remaining time before shutdown).

Payload->OBC : GetEnvRequest
Payload<- -OBC : GetEnvResponse

end

group Write file "001200.RES"

Payload->OBC : OpenFileRequest(filename="001200.RES", mode=WRITE)
Payload<- -OBC : OpenFileResponse
loop
Payload->OBC : WriteFileChunkRequest(s)
Payload<- -OBC : WriteFileChunkResponse(s)
end
Payload->OBC : CloseFileRequest
Payload<- -OBC : CloseFileResponse

note over Payload, OBC: .RES file size is less than 2 KBytes

end

== End of the STORE2400 scenario ==



== Start of diagnosis ==

group Get env.

note over Payload: For diagnosis, ,\nthe Payload records the env. params\n(timestamp, gps, attitude, battery level ... \nand remaining time before shutdown).

Payload->OBC : GetEnvRequest
Payload<- -OBC : GetEnvResponse

end

group Write file "0012.DIA"

Payload->OBC : OpenFileRequest(filename="0012.DIA", mode=WRITE)
Payload<- -OBC : OpenFileResponse
loop
Payload->OBC : WriteFileChunkRequest(s)
Payload<- -OBC : WriteFileChunkResponse(s)
end
Payload->OBC : CloseFileRequest
Payload<- -OBC : CloseFileResponse

note over Payload, OBC: .DIA file size is less than 0.2 Kbytes
end
== End of diagnosis ==


== Shutdown ==

Payload->OBC : ShutdownRequest

Payload<- -OBC : Shutdown


== Downlink ==

OBC->GroundSegment : Send file with filename="001200.RES"

note over OBC, GroundSegment: .PKT files total size is less than 730 Kbytes per scenario.\nHowever, the size can be limited into the scenario parameters\naccording to the dialy downlink quota of the Payload.

OBC->GroundSegment : Send file with filename="00120000.PKT"
OBC->GroundSegment : Send file with filename="00120001.PKT"
OBC->GroundSegment : Send file with filename="00120002.PKT"
OBC->GroundSegment : Send file with filename="0012.DIA"
@enduml

PlantUML version 1.2022.2beta1(Unknown compile time)
(GPL source distribution)
Java Runtime: Java(TM) SE Runtime Environment
JVM: Java HotSpot(TM) 64-Bit Server VM
Default Encoding: UTF-8
Language: en
Country: US
--></g></svg>